EESchema Schematic File Version 4
LIBS:keyboard-cache
EELAYER 30 0
EELAYER END
$Descr A3 16535 11693
encoding utf-8
Sheet 1 1
Title "Keyboard Schematic"
Date ""
Rev ""
Comp ""
Comment1 ""
Comment2 ""
Comment3 ""
Comment4 ""
$EndDescr
$Comp
L KeyBoard_Components:GND #PWR0101
U 1 1 5D6F0580
P 6150 9050
F 0 "#PWR0101" H 6150 9100 20  0001 C CNN
F 1 "GND" V 6200 9000 30  0000 C CNN
F 2 "" H 6150 9050 60  0000 C CNN
F 3 "" H 6150 9050 60  0000 C CNN
	1    6150 9050
	0    -1   -1   0   
$EndComp
$Comp
L power:VCC #PWR0102
U 1 1 5D6F56BD
P 1250 1050
F 0 "#PWR0102" H 1250 900 50  0001 C CNN
F 1 "VCC" H 1267 1223 50  0000 C CNN
F 2 "" H 1250 1050 50  0001 C CNN
F 3 "" H 1250 1050 50  0001 C CNN
	1    1250 1050
	1    0    0    -1  
$EndComp
$Comp
L KeyBoard_Components:GND #PWR0103
U 1 1 5D6F59B0
P 1250 1700
F 0 "#PWR0103" H 1250 1750 20  0001 C CNN
F 1 "GND" H 1250 1759 30  0000 C CNN
F 2 "" H 1250 1700 60  0000 C CNN
F 3 "" H 1250 1700 60  0000 C CNN
	1    1250 1700
	1    0    0    -1  
$EndComp
$Comp
L Device:C C3
U 1 1 5D6F5D2D
P 1250 1350
F 0 "C3" H 1365 1396 50  0000 L CNN
F 1 "0.1u" H 1365 1305 50  0000 L CNN
F 2 "Capacitor_SMD:C_0805_2012Metric" H 1288 1200 50  0001 C CNN
F 3 "~" H 1250 1350 50  0001 C CNN
	1    1250 1350
	1    0    0    -1  
$EndComp
$Comp
L Device:C C4
U 1 1 5D6F60F1
P 1700 1350
F 0 "C4" H 1815 1396 50  0000 L CNN
F 1 "0.1u" H 1815 1305 50  0000 L CNN
F 2 "Capacitor_SMD:C_0805_2012Metric" H 1738 1200 50  0001 C CNN
F 3 "~" H 1700 1350 50  0001 C CNN
	1    1700 1350
	1    0    0    -1  
$EndComp
$Comp
L Device:C C5
U 1 1 5D6F6901
P 2100 1350
F 0 "C5" H 2215 1396 50  0000 L CNN
F 1 "0.1u" H 2215 1305 50  0000 L CNN
F 2 "Capacitor_SMD:C_0805_2012Metric" H 2138 1200 50  0001 C CNN
F 3 "~" H 2100 1350 50  0001 C CNN
	1    2100 1350
	1    0    0    -1  
$EndComp
$Comp
L Device:C C6
U 1 1 5D6F6AC8
P 2500 1350
F 0 "C6" H 2615 1396 50  0000 L CNN
F 1 "0.1u" H 2615 1305 50  0000 L CNN
F 2 "Capacitor_SMD:C_0805_2012Metric" H 2538 1200 50  0001 C CNN
F 3 "~" H 2500 1350 50  0001 C CNN
	1    2500 1350
	1    0    0    -1  
$EndComp
$Comp
L Device:C C7
U 1 1 5D6F6E98
P 2950 1350
F 0 "C7" H 3065 1396 50  0000 L CNN
F 1 "4.7u" H 3065 1305 50  0000 L CNN
F 2 "Capacitor_SMD:C_0805_2012Metric" H 2988 1200 50  0001 C CNN
F 3 "~" H 2950 1350 50  0001 C CNN
	1    2950 1350
	1    0    0    -1  
$EndComp
Wire Wire Line
	1250 1050 1250 1100
Wire Wire Line
	1250 1500 1250 1600
Wire Wire Line
	1700 1200 1700 1100
Wire Wire Line
	1700 1100 1250 1100
Connection ~ 1250 1100
Wire Wire Line
	1250 1100 1250 1200
Wire Wire Line
	2100 1200 2100 1100
Wire Wire Line
	2100 1100 1700 1100
Connection ~ 1700 1100
Wire Wire Line
	2500 1200 2500 1100
Wire Wire Line
	2500 1100 2100 1100
Connection ~ 2100 1100
Wire Wire Line
	2950 1200 2950 1100
Wire Wire Line
	2950 1100 2500 1100
Connection ~ 2500 1100
Wire Wire Line
	2950 1500 2950 1600
Wire Wire Line
	2950 1600 2500 1600
Connection ~ 1250 1600
Wire Wire Line
	1250 1600 1250 1700
Wire Wire Line
	1700 1500 1700 1600
Connection ~ 1700 1600
Wire Wire Line
	1700 1600 1250 1600
Wire Wire Line
	2100 1500 2100 1600
Connection ~ 2100 1600
Wire Wire Line
	2100 1600 1700 1600
Wire Wire Line
	2500 1500 2500 1600
Connection ~ 2500 1600
Wire Wire Line
	2500 1600 2100 1600
$Comp
L Switch:SW_Push_LED k-esc1
U 1 1 5D7572F6
P 4500 1850
F 0 "k-esc1" H 4500 2083 60  0000 C CNN
F 1 "KEYSW" H 4500 1750 60  0001 C CNN
F 2 "Switches:Mx_Alps_100" H 4500 1850 60  0001 C CNN
F 3 "" H 4500 1850 60  0000 C CNN
	1    4500 1850
	1    0    0    -1  
$EndComp
$Comp
L Device:D D1
U 1 1 5D757926
P 4150 2000
F 0 "D1" V 4196 1921 50  0000 R CNN
F 1 "D" V 4105 1921 50  0000 R CNN
F 2 "Keyboard1:D_SOD123_axial" H 4150 2000 50  0001 C CNN
F 3 "~" H 4150 2000 50  0001 C CNN
	1    4150 2000
	0    -1   -1   0   
$EndComp
Wire Wire Line
	4150 1750 4150 1850
Text HLabel 4850 1300 1    50   Input ~ 0
col0
Text HLabel 5700 1300 1    50   Input ~ 0
col1
Text HLabel 6550 1300 1    50   Input ~ 0
col2
Text HLabel 7400 1300 1    50   Input ~ 0
col3
Text HLabel 8250 1300 1    50   Input ~ 0
col4
Text HLabel 9100 1300 1    50   Input ~ 0
col5
Text HLabel 9950 1300 1    50   Input ~ 0
col6
Text HLabel 10800 1300 1    50   Input ~ 0
col7
Text HLabel 11650 1300 1    50   Input ~ 0
col8
Text HLabel 12500 1300 1    50   Input ~ 0
col9
Text HLabel 13350 1300 1    50   Input ~ 0
col10
Text HLabel 14200 1300 1    50   Input ~ 0
col11
Text HLabel 15050 1300 1    50   Input ~ 0
col12
Text HLabel 15900 1300 1    50   Input ~ 0
col13
Text HLabel 3950 2150 0    50   Input ~ 0
row0
Wire Wire Line
	4850 1300 4850 1750
Wire Wire Line
	4150 2150 3950 2150
$Comp
L Switch:SW_Push_LED K-1/f1
U 1 1 5D78CE2D
P 5350 1850
F 0 "K-1/f1" H 5350 2083 60  0000 C CNN
F 1 "KEYSW" H 5350 1750 60  0001 C CNN
F 2 "Switches:Mx_Alps_100" H 5350 1850 60  0001 C CNN
F 3 "" H 5350 1850 60  0000 C CNN
	1    5350 1850
	1    0    0    -1  
$EndComp
$Comp
L Device:D D2
U 1 1 5D78CE33
P 5000 2000
F 0 "D2" V 5046 1921 50  0000 R CNN
F 1 "D" V 4955 1921 50  0000 R CNN
F 2 "Keyboard1:D_SOD123_axial" H 5000 2000 50  0001 C CNN
F 3 "~" H 5000 2000 50  0001 C CNN
	1    5000 2000
	0    -1   -1   0   
$EndComp
Wire Wire Line
	5000 1750 5000 1850
Wire Wire Line
	5700 1300 5700 1750
$Comp
L Switch:SW_Push_LED K-2
U 1 1 5D793EF5
P 6200 1850
F 0 "K-2" H 6200 2083 60  0000 C CNN
F 1 "KEYSW" H 6200 1750 60  0001 C CNN
F 2 "Switches:Mx_Alps_100" H 6200 1850 60  0001 C CNN
F 3 "" H 6200 1850 60  0000 C CNN
	1    6200 1850
	1    0    0    -1  
$EndComp
$Comp
L Device:D D3
U 1 1 5D793EFB
P 5850 2000
F 0 "D3" V 5896 1921 50  0000 R CNN
F 1 "D" V 5805 1921 50  0000 R CNN
F 2 "Keyboard1:D_SOD123_axial" H 5850 2000 50  0001 C CNN
F 3 "~" H 5850 2000 50  0001 C CNN
	1    5850 2000
	0    -1   -1   0   
$EndComp
Wire Wire Line
	5850 1750 5850 1850
Wire Wire Line
	6550 1300 6550 1750
$Comp
L Switch:SW_Push_LED K-3
U 1 1 5D795E3D
P 7050 1850
F 0 "K-3" H 7050 2083 60  0000 C CNN
F 1 "KEYSW" H 7050 1750 60  0001 C CNN
F 2 "Switches:Mx_Alps_100" H 7050 1850 60  0001 C CNN
F 3 "" H 7050 1850 60  0000 C CNN
	1    7050 1850
	1    0    0    -1  
$EndComp
$Comp
L Device:D D4
U 1 1 5D795E43
P 6700 2000
F 0 "D4" V 6746 1921 50  0000 R CNN
F 1 "D" V 6655 1921 50  0000 R CNN
F 2 "Keyboard1:D_SOD123_axial" H 6700 2000 50  0001 C CNN
F 3 "~" H 6700 2000 50  0001 C CNN
	1    6700 2000
	0    -1   -1   0   
$EndComp
Wire Wire Line
	6700 1750 6700 1850
Wire Wire Line
	7400 1300 7400 1750
$Comp
L Switch:SW_Push_LED K-4
U 1 1 5D79893D
P 7900 1850
F 0 "K-4" H 7900 2083 60  0000 C CNN
F 1 "KEYSW" H 7900 1750 60  0001 C CNN
F 2 "Switches:Mx_Alps_100" H 7900 1850 60  0001 C CNN
F 3 "" H 7900 1850 60  0000 C CNN
	1    7900 1850
	1    0    0    -1  
$EndComp
$Comp
L Device:D D5
U 1 1 5D798943
P 7550 2000
F 0 "D5" V 7596 1921 50  0000 R CNN
F 1 "D" V 7505 1921 50  0000 R CNN
F 2 "Keyboard1:D_SOD123_axial" H 7550 2000 50  0001 C CNN
F 3 "~" H 7550 2000 50  0001 C CNN
	1    7550 2000
	0    -1   -1   0   
$EndComp
Wire Wire Line
	7550 1750 7550 1850
Wire Wire Line
	8250 1300 8250 1750
$Comp
L Switch:SW_Push_LED K-5
U 1 1 5D79B2CF
P 8750 1850
F 0 "K-5" H 8750 2083 60  0000 C CNN
F 1 "KEYSW" H 8750 1750 60  0001 C CNN
F 2 "Switches:Mx_Alps_100" H 8750 1850 60  0001 C CNN
F 3 "" H 8750 1850 60  0000 C CNN
	1    8750 1850
	1    0    0    -1  
$EndComp
$Comp
L Device:D D6
U 1 1 5D79B2D5
P 8400 2000
F 0 "D6" V 8446 1921 50  0000 R CNN
F 1 "D" V 8355 1921 50  0000 R CNN
F 2 "Keyboard1:D_SOD123_axial" H 8400 2000 50  0001 C CNN
F 3 "~" H 8400 2000 50  0001 C CNN
	1    8400 2000
	0    -1   -1   0   
$EndComp
Wire Wire Line
	8400 1750 8400 1850
Wire Wire Line
	9100 1300 9100 1750
$Comp
L Switch:SW_Push_LED K-6
U 1 1 5D79E103
P 9600 1850
F 0 "K-6" H 9600 2083 60  0000 C CNN
F 1 "KEYSW" H 9600 1750 60  0001 C CNN
F 2 "Switches:Mx_Alps_100" H 9600 1850 60  0001 C CNN
F 3 "" H 9600 1850 60  0000 C CNN
	1    9600 1850
	1    0    0    -1  
$EndComp
$Comp
L Device:D D7
U 1 1 5D79E109
P 9250 2000
F 0 "D7" V 9296 1921 50  0000 R CNN
F 1 "D" V 9205 1921 50  0000 R CNN
F 2 "Keyboard1:D_SOD123_axial" H 9250 2000 50  0001 C CNN
F 3 "~" H 9250 2000 50  0001 C CNN
	1    9250 2000
	0    -1   -1   0   
$EndComp
Wire Wire Line
	9250 1750 9250 1850
Wire Wire Line
	9950 1300 9950 1750
$Comp
L Switch:SW_Push_LED K-7
U 1 1 5D7AC95B
P 10450 1850
F 0 "K-7" H 10450 2083 60  0000 C CNN
F 1 "KEYSW" H 10450 1750 60  0001 C CNN
F 2 "Switches:Mx_Alps_100" H 10450 1850 60  0001 C CNN
F 3 "" H 10450 1850 60  0000 C CNN
	1    10450 1850
	1    0    0    -1  
$EndComp
$Comp
L Device:D D8
U 1 1 5D7AC961
P 10100 2000
F 0 "D8" V 10146 1921 50  0000 R CNN
F 1 "D" V 10055 1921 50  0000 R CNN
F 2 "Keyboard1:D_SOD123_axial" H 10100 2000 50  0001 C CNN
F 3 "~" H 10100 2000 50  0001 C CNN
	1    10100 2000
	0    -1   -1   0   
$EndComp
Wire Wire Line
	10100 1750 10100 1850
Wire Wire Line
	10800 1300 10800 1750
$Comp
L Switch:SW_Push_LED K-8
U 1 1 5D7AC96B
P 11300 1850
F 0 "K-8" H 11300 2083 60  0000 C CNN
F 1 "KEYSW" H 11300 1750 60  0001 C CNN
F 2 "Switches:Mx_Alps_100" H 11300 1850 60  0001 C CNN
F 3 "" H 11300 1850 60  0000 C CNN
	1    11300 1850
	1    0    0    -1  
$EndComp
$Comp
L Device:D D9
U 1 1 5D7AC971
P 10950 2000
F 0 "D9" V 10996 1921 50  0000 R CNN
F 1 "D" V 10905 1921 50  0000 R CNN
F 2 "Keyboard1:D_SOD123_axial" H 10950 2000 50  0001 C CNN
F 3 "~" H 10950 2000 50  0001 C CNN
	1    10950 2000
	0    -1   -1   0   
$EndComp
Wire Wire Line
	10950 1750 10950 1850
Wire Wire Line
	11650 1300 11650 1750
$Comp
L Switch:SW_Push_LED K-9
U 1 1 5D7AC97B
P 12150 1850
F 0 "K-9" H 12150 2083 60  0000 C CNN
F 1 "KEYSW" H 12150 1750 60  0001 C CNN
F 2 "Switches:Mx_Alps_100" H 12150 1850 60  0001 C CNN
F 3 "" H 12150 1850 60  0000 C CNN
	1    12150 1850
	1    0    0    -1  
$EndComp
$Comp
L Device:D DO10
U 1 1 5D7AC981
P 11800 2000
F 0 "DO10" V 11846 1921 50  0000 R CNN
F 1 "D" V 11755 1921 50  0000 R CNN
F 2 "Keyboard1:D_SOD123_axial" H 11800 2000 50  0001 C CNN
F 3 "~" H 11800 2000 50  0001 C CNN
	1    11800 2000
	0    -1   -1   0   
$EndComp
Wire Wire Line
	11800 1750 11800 1850
Wire Wire Line
	12500 1300 12500 1750
$Comp
L Switch:SW_Push_LED K-0
U 1 1 5D7AC98B
P 13000 1850
F 0 "K-0" H 13000 2083 60  0000 C CNN
F 1 "KEYSW" H 13000 1750 60  0001 C CNN
F 2 "Switches:Mx_Alps_100" H 13000 1850 60  0001 C CNN
F 3 "" H 13000 1850 60  0000 C CNN
	1    13000 1850
	1    0    0    -1  
$EndComp
$Comp
L Device:D DO11
U 1 1 5D7AC991
P 12650 2000
F 0 "DO11" V 12696 1921 50  0000 R CNN
F 1 "D" V 12605 1921 50  0000 R CNN
F 2 "Keyboard1:D_SOD123_axial" H 12650 2000 50  0001 C CNN
F 3 "~" H 12650 2000 50  0001 C CNN
	1    12650 2000
	0    -1   -1   0   
$EndComp
Wire Wire Line
	12650 1750 12650 1850
Wire Wire Line
	13350 1300 13350 1750
$Comp
L Switch:SW_Push_LED K--1
U 1 1 5D7AC99B
P 13850 1850
F 0 "K--1" H 13850 2083 60  0000 C CNN
F 1 "KEYSW" H 13850 1750 60  0001 C CNN
F 2 "Switches:Mx_Alps_100" H 13850 1850 60  0001 C CNN
F 3 "" H 13850 1850 60  0000 C CNN
	1    13850 1850
	1    0    0    -1  
$EndComp
$Comp
L Device:D DO12
U 1 1 5D7AC9A1
P 13500 2000
F 0 "DO12" V 13546 1921 50  0000 R CNN
F 1 "D" V 13455 1921 50  0000 R CNN
F 2 "Keyboard1:D_SOD123_axial" H 13500 2000 50  0001 C CNN
F 3 "~" H 13500 2000 50  0001 C CNN
	1    13500 2000
	0    -1   -1   0   
$EndComp
Wire Wire Line
	13500 1750 13500 1850
Wire Wire Line
	14200 1300 14200 1750
$Comp
L Switch:SW_Push_LED K-+1
U 1 1 5D7AC9AB
P 14700 1850
F 0 "K-+1" H 14700 2083 60  0000 C CNN
F 1 "KEYSW" H 14700 1750 60  0001 C CNN
F 2 "Switches:Mx_Alps_100" H 14700 1850 60  0001 C CNN
F 3 "" H 14700 1850 60  0000 C CNN
	1    14700 1850
	1    0    0    -1  
$EndComp
$Comp
L Device:D DO13
U 1 1 5D7AC9B1
P 14350 2000
F 0 "DO13" V 14396 1921 50  0000 R CNN
F 1 "D" V 14305 1921 50  0000 R CNN
F 2 "Keyboard1:D_SOD123_axial" H 14350 2000 50  0001 C CNN
F 3 "~" H 14350 2000 50  0001 C CNN
	1    14350 2000
	0    -1   -1   0   
$EndComp
Wire Wire Line
	14350 1750 14350 1850
$Comp
L Device:D DO14
U 1 1 5D7AC9C1
P 15200 2000
F 0 "DO14" V 15246 1921 50  0000 R CNN
F 1 "D" V 15155 1921 50  0000 R CNN
F 2 "Keyboard1:D_SOD123" H 15200 2000 50  0001 C CNN
F 3 "~" H 15200 2000 50  0001 C CNN
	1    15200 2000
	0    -1   -1   0   
$EndComp
Wire Wire Line
	15200 1750 15200 1850
Wire Wire Line
	15900 1300 15900 1750
Wire Wire Line
	5000 2150 4150 2150
Connection ~ 4150 2150
Wire Wire Line
	15200 2150 14350 2150
Connection ~ 5000 2150
Connection ~ 5850 2150
Wire Wire Line
	5850 2150 5000 2150
Connection ~ 6700 2150
Wire Wire Line
	6700 2150 5850 2150
Connection ~ 7550 2150
Wire Wire Line
	7550 2150 6700 2150
Connection ~ 8400 2150
Wire Wire Line
	8400 2150 7550 2150
Connection ~ 9250 2150
Wire Wire Line
	9250 2150 8400 2150
Connection ~ 10100 2150
Wire Wire Line
	10100 2150 9250 2150
Connection ~ 10950 2150
Wire Wire Line
	10950 2150 10100 2150
Connection ~ 11800 2150
Wire Wire Line
	11800 2150 10950 2150
Connection ~ 12650 2150
Wire Wire Line
	12650 2150 11800 2150
Connection ~ 13500 2150
Wire Wire Line
	13500 2150 12650 2150
Connection ~ 14350 2150
Wire Wire Line
	14350 2150 13500 2150
$Comp
L Switch:SW_Push_LED K-tab1
U 1 1 5D87E00F
P 4500 2750
F 0 "K-tab1" H 4500 2983 60  0000 C CNN
F 1 "KEYSW" H 4500 2650 60  0001 C CNN
F 2 "Switches:Mx_Alps_150" H 4500 2750 60  0001 C CNN
F 3 "" H 4500 2750 60  0000 C CNN
	1    4500 2750
	1    0    0    -1  
$EndComp
$Comp
L Device:D D10
U 1 1 5D87E015
P 4150 2900
F 0 "D10" V 4196 2821 50  0000 R CNN
F 1 "D" V 4105 2821 50  0000 R CNN
F 2 "Keyboard1:D_SOD123_axial" H 4150 2900 50  0001 C CNN
F 3 "~" H 4150 2900 50  0001 C CNN
	1    4150 2900
	0    -1   -1   0   
$EndComp
Wire Wire Line
	4150 2650 4150 2750
Text HLabel 3950 3050 0    50   Input ~ 0
row1
Wire Wire Line
	4150 3050 3950 3050
$Comp
L Switch:SW_Push_LED K-q1
U 1 1 5D87E021
P 5350 2750
F 0 "K-q1" H 5350 2983 60  0000 C CNN
F 1 "KEYSW" H 5350 2650 60  0001 C CNN
F 2 "Switches:Mx_Alps_100" H 5350 2750 60  0001 C CNN
F 3 "" H 5350 2750 60  0000 C CNN
	1    5350 2750
	1    0    0    -1  
$EndComp
$Comp
L Device:D D11
U 1 1 5D87E027
P 5000 2900
F 0 "D11" V 5046 2821 50  0000 R CNN
F 1 "D" V 4955 2821 50  0000 R CNN
F 2 "Keyboard1:D_SOD123_axial" H 5000 2900 50  0001 C CNN
F 3 "~" H 5000 2900 50  0001 C CNN
	1    5000 2900
	0    -1   -1   0   
$EndComp
Wire Wire Line
	5000 2650 5000 2750
$Comp
L Switch:SW_Push_LED K-w1
U 1 1 5D87E031
P 6200 2750
F 0 "K-w1" H 6200 2983 60  0000 C CNN
F 1 "KEYSW" H 6200 2650 60  0001 C CNN
F 2 "Switches:Mx_Alps_100" H 6200 2750 60  0001 C CNN
F 3 "" H 6200 2750 60  0000 C CNN
	1    6200 2750
	1    0    0    -1  
$EndComp
$Comp
L Device:D D12
U 1 1 5D87E037
P 5850 2900
F 0 "D12" V 5896 2821 50  0000 R CNN
F 1 "D" V 5805 2821 50  0000 R CNN
F 2 "Keyboard1:D_SOD123_axial" H 5850 2900 50  0001 C CNN
F 3 "~" H 5850 2900 50  0001 C CNN
	1    5850 2900
	0    -1   -1   0   
$EndComp
Wire Wire Line
	5850 2650 5850 2750
$Comp
L Switch:SW_Push_LED K-e1
U 1 1 5D87E041
P 7050 2750
F 0 "K-e1" H 7050 2983 60  0000 C CNN
F 1 "KEYSW" H 7050 2650 60  0001 C CNN
F 2 "Switches:Mx_Alps_100" H 7050 2750 60  0001 C CNN
F 3 "" H 7050 2750 60  0000 C CNN
	1    7050 2750
	1    0    0    -1  
$EndComp
$Comp
L Device:D D13
U 1 1 5D87E047
P 6700 2900
F 0 "D13" V 6746 2821 50  0000 R CNN
F 1 "D" V 6655 2821 50  0000 R CNN
F 2 "Keyboard1:D_SOD123_axial" H 6700 2900 50  0001 C CNN
F 3 "~" H 6700 2900 50  0001 C CNN
	1    6700 2900
	0    -1   -1   0   
$EndComp
Wire Wire Line
	6700 2650 6700 2750
$Comp
L Switch:SW_Push_LED K-r1
U 1 1 5D87E051
P 7900 2750
F 0 "K-r1" H 7900 2983 60  0000 C CNN
F 1 "KEYSW" H 7900 2650 60  0001 C CNN
F 2 "Switches:Mx_Alps_100" H 7900 2750 60  0001 C CNN
F 3 "" H 7900 2750 60  0000 C CNN
	1    7900 2750
	1    0    0    -1  
$EndComp
$Comp
L Device:D D14
U 1 1 5D87E057
P 7550 2900
F 0 "D14" V 7596 2821 50  0000 R CNN
F 1 "D" V 7505 2821 50  0000 R CNN
F 2 "Keyboard1:D_SOD123_axial" H 7550 2900 50  0001 C CNN
F 3 "~" H 7550 2900 50  0001 C CNN
	1    7550 2900
	0    -1   -1   0   
$EndComp
Wire Wire Line
	7550 2650 7550 2750
$Comp
L Switch:SW_Push_LED K-t1
U 1 1 5D87E061
P 8800 2750
F 0 "K-t1" H 8800 2983 60  0000 C CNN
F 1 "KEYSW" H 8800 2650 60  0001 C CNN
F 2 "Switches:Mx_Alps_100" H 8800 2750 60  0001 C CNN
F 3 "" H 8800 2750 60  0000 C CNN
	1    8800 2750
	1    0    0    -1  
$EndComp
$Comp
L Device:D D15
U 1 1 5D87E067
P 8400 2900
F 0 "D15" V 8446 2821 50  0000 R CNN
F 1 "D" V 8355 2821 50  0000 R CNN
F 2 "Keyboard1:D_SOD123_axial" H 8400 2900 50  0001 C CNN
F 3 "~" H 8400 2900 50  0001 C CNN
	1    8400 2900
	0    -1   -1   0   
$EndComp
Wire Wire Line
	8400 2650 8400 2750
$Comp
L Switch:SW_Push_LED K-y1
U 1 1 5D87E071
P 9600 2750
F 0 "K-y1" H 9600 2983 60  0000 C CNN
F 1 "KEYSW" H 9600 2650 60  0001 C CNN
F 2 "Switches:Mx_Alps_100" H 9600 2750 60  0001 C CNN
F 3 "" H 9600 2750 60  0000 C CNN
	1    9600 2750
	1    0    0    -1  
$EndComp
$Comp
L Device:D D16
U 1 1 5D87E077
P 9250 2900
F 0 "D16" V 9296 2821 50  0000 R CNN
F 1 "D" V 9205 2821 50  0000 R CNN
F 2 "Keyboard1:D_SOD123_axial" H 9250 2900 50  0001 C CNN
F 3 "~" H 9250 2900 50  0001 C CNN
	1    9250 2900
	0    -1   -1   0   
$EndComp
Wire Wire Line
	9250 2650 9250 2750
$Comp
L Switch:SW_Push_LED K-u1
U 1 1 5D87E081
P 10450 2750
F 0 "K-u1" H 10450 2983 60  0000 C CNN
F 1 "KEYSW" H 10450 2650 60  0001 C CNN
F 2 "Switches:Mx_Alps_100" H 10450 2750 60  0001 C CNN
F 3 "" H 10450 2750 60  0000 C CNN
	1    10450 2750
	1    0    0    -1  
$EndComp
$Comp
L Device:D D17
U 1 1 5D87E087
P 10100 2900
F 0 "D17" V 10146 2821 50  0000 R CNN
F 1 "D" V 10055 2821 50  0000 R CNN
F 2 "Keyboard1:D_SOD123_axial" H 10100 2900 50  0001 C CNN
F 3 "~" H 10100 2900 50  0001 C CNN
	1    10100 2900
	0    -1   -1   0   
$EndComp
Wire Wire Line
	10100 2650 10100 2750
$Comp
L Switch:SW_Push_LED K-i1
U 1 1 5D87E091
P 11300 2750
F 0 "K-i1" H 11300 2983 60  0000 C CNN
F 1 "KEYSW" H 11300 2650 60  0001 C CNN
F 2 "Switches:Mx_Alps_100" H 11300 2750 60  0001 C CNN
F 3 "" H 11300 2750 60  0000 C CNN
	1    11300 2750
	1    0    0    -1  
$EndComp
$Comp
L Device:D D18
U 1 1 5D87E097
P 10950 2900
F 0 "D18" V 10996 2821 50  0000 R CNN
F 1 "D" V 10905 2821 50  0000 R CNN
F 2 "Keyboard1:D_SOD123_axial" H 10950 2900 50  0001 C CNN
F 3 "~" H 10950 2900 50  0001 C CNN
	1    10950 2900
	0    -1   -1   0   
$EndComp
Wire Wire Line
	10950 2650 10950 2750
$Comp
L Switch:SW_Push_LED K-o1
U 1 1 5D87E0A1
P 12150 2750
F 0 "K-o1" H 12150 2983 60  0000 C CNN
F 1 "KEYSW" H 12150 2650 60  0001 C CNN
F 2 "Switches:Mx_Alps_100" H 12150 2750 60  0001 C CNN
F 3 "" H 12150 2750 60  0000 C CNN
	1    12150 2750
	1    0    0    -1  
$EndComp
$Comp
L Device:D D19
U 1 1 5D87E0A7
P 11800 2900
F 0 "D19" V 11846 2821 50  0000 R CNN
F 1 "D" V 11755 2821 50  0000 R CNN
F 2 "Keyboard1:D_SOD123_axial" H 11800 2900 50  0001 C CNN
F 3 "~" H 11800 2900 50  0001 C CNN
	1    11800 2900
	0    -1   -1   0   
$EndComp
Wire Wire Line
	11800 2650 11800 2750
$Comp
L Switch:SW_Push_LED K-p1
U 1 1 5D87E0B1
P 13000 2750
F 0 "K-p1" H 13000 2983 60  0000 C CNN
F 1 "KEYSW" H 13000 2650 60  0001 C CNN
F 2 "Switches:Mx_Alps_100" H 13000 2750 60  0001 C CNN
F 3 "" H 13000 2750 60  0000 C CNN
	1    13000 2750
	1    0    0    -1  
$EndComp
$Comp
L Device:D D110
U 1 1 5D87E0B7
P 12650 2900
F 0 "D110" V 12696 2821 50  0000 R CNN
F 1 "D" V 12605 2821 50  0000 R CNN
F 2 "Keyboard1:D_SOD123_axial" H 12650 2900 50  0001 C CNN
F 3 "~" H 12650 2900 50  0001 C CNN
	1    12650 2900
	0    -1   -1   0   
$EndComp
Wire Wire Line
	12650 2650 12650 2750
$Comp
L Switch:SW_Push_LED K-[1
U 1 1 5D87E0C1
P 13850 2750
F 0 "K-[1" H 13850 2983 60  0000 C CNN
F 1 "KEYSW" H 13850 2650 60  0001 C CNN
F 2 "Switches:Mx_Alps_100" H 13850 2750 60  0001 C CNN
F 3 "" H 13850 2750 60  0000 C CNN
	1    13850 2750
	1    0    0    -1  
$EndComp
$Comp
L Device:D D111
U 1 1 5D87E0C7
P 13500 2900
F 0 "D111" V 13546 2821 50  0000 R CNN
F 1 "D" V 13455 2821 50  0000 R CNN
F 2 "Keyboard1:D_SOD123_axial" H 13500 2900 50  0001 C CNN
F 3 "~" H 13500 2900 50  0001 C CNN
	1    13500 2900
	0    -1   -1   0   
$EndComp
Wire Wire Line
	13500 2650 13500 2750
$Comp
L Switch:SW_Push_LED K-]1
U 1 1 5D87E0D1
P 14700 2750
F 0 "K-]1" H 14700 2983 60  0000 C CNN
F 1 "KEYSW" H 14700 2650 60  0001 C CNN
F 2 "Switches:Mx_Alps_100" H 14700 2750 60  0001 C CNN
F 3 "" H 14700 2750 60  0000 C CNN
	1    14700 2750
	1    0    0    -1  
$EndComp
$Comp
L Device:D D112
U 1 1 5D87E0D7
P 14350 2900
F 0 "D112" V 14396 2821 50  0000 R CNN
F 1 "D" V 14305 2821 50  0000 R CNN
F 2 "Keyboard1:D_SOD123_axial" H 14350 2900 50  0001 C CNN
F 3 "~" H 14350 2900 50  0001 C CNN
	1    14350 2900
	0    -1   -1   0   
$EndComp
Wire Wire Line
	14350 2650 14350 2750
$Comp
L Switch:SW_Push_LED K-|1
U 1 1 5D87E0E1
P 15550 2750
F 0 "K-|1" H 15550 2983 60  0000 C CNN
F 1 "KEYSW" H 15550 2650 60  0001 C CNN
F 2 "Switches:Mx_Alps_100" H 15550 2750 60  0001 C CNN
F 3 "" H 15550 2750 60  0000 C CNN
	1    15550 2750
	1    0    0    -1  
$EndComp
$Comp
L Device:D D113
U 1 1 5D87E0E7
P 15200 2900
F 0 "D113" V 15246 2821 50  0000 R CNN
F 1 "D" V 15155 2821 50  0000 R CNN
F 2 "Keyboard1:D_SOD123_axial" H 15200 2900 50  0001 C CNN
F 3 "~" H 15200 2900 50  0001 C CNN
	1    15200 2900
	0    -1   -1   0   
$EndComp
Wire Wire Line
	15200 2650 15200 2750
Connection ~ 4150 3050
Wire Wire Line
	15200 3050 14350 3050
Connection ~ 5000 3050
Connection ~ 5850 3050
Wire Wire Line
	5850 3050 5000 3050
Connection ~ 6700 3050
Wire Wire Line
	6700 3050 5850 3050
Connection ~ 7550 3050
Wire Wire Line
	7550 3050 6700 3050
Connection ~ 8400 3050
Wire Wire Line
	8400 3050 7550 3050
Connection ~ 9250 3050
Wire Wire Line
	9250 3050 8400 3050
Connection ~ 10100 3050
Wire Wire Line
	10100 3050 9250 3050
Connection ~ 10950 3050
Wire Wire Line
	10950 3050 10100 3050
Connection ~ 11800 3050
Wire Wire Line
	11800 3050 10950 3050
Connection ~ 12650 3050
Wire Wire Line
	12650 3050 11800 3050
Connection ~ 13500 3050
Wire Wire Line
	13500 3050 12650 3050
Connection ~ 14350 3050
Wire Wire Line
	14350 3050 13500 3050
$Comp
L Switch:SW_Push_LED K-caps1
U 1 1 5D892882
P 4450 3700
F 0 "K-caps1" H 4450 3933 60  0000 C CNN
F 1 "KEYSW" H 4450 3600 60  0001 C CNN
F 2 "Switches:Mx_Alps_175" H 4450 3700 60  0001 C CNN
F 3 "" H 4450 3700 60  0000 C CNN
	1    4450 3700
	1    0    0    -1  
$EndComp
$Comp
L Device:D D20
U 1 1 5D892888
P 4100 3850
F 0 "D20" V 4146 3771 50  0000 R CNN
F 1 "D" V 4055 3771 50  0000 R CNN
F 2 "Keyboard1:D_SOD123_axial" H 4100 3850 50  0001 C CNN
F 3 "~" H 4100 3850 50  0001 C CNN
	1    4100 3850
	0    -1   -1   0   
$EndComp
Wire Wire Line
	4100 3600 4100 3700
Text HLabel 3900 4000 0    50   Input ~ 0
row2
Wire Wire Line
	4100 4000 3900 4000
$Comp
L Switch:SW_Push_LED K-a1
U 1 1 5D892894
P 5300 3700
F 0 "K-a1" H 5300 3933 60  0000 C CNN
F 1 "KEYSW" H 5300 3600 60  0001 C CNN
F 2 "Switches:Mx_Alps_100" H 5300 3700 60  0001 C CNN
F 3 "" H 5300 3700 60  0000 C CNN
	1    5300 3700
	1    0    0    -1  
$EndComp
$Comp
L Device:D D21
U 1 1 5D89289A
P 4950 3850
F 0 "D21" V 4996 3771 50  0000 R CNN
F 1 "D" V 4905 3771 50  0000 R CNN
F 2 "Keyboard1:D_SOD123_axial" H 4950 3850 50  0001 C CNN
F 3 "~" H 4950 3850 50  0001 C CNN
	1    4950 3850
	0    -1   -1   0   
$EndComp
Wire Wire Line
	4950 3600 4950 3700
Wire Wire Line
	5650 3150 5650 3600
$Comp
L Switch:SW_Push_LED K-s1
U 1 1 5D8928A4
P 6150 3700
F 0 "K-s1" H 6150 3933 60  0000 C CNN
F 1 "KEYSW" H 6150 3600 60  0001 C CNN
F 2 "Switches:Mx_Alps_100" H 6150 3700 60  0001 C CNN
F 3 "" H 6150 3700 60  0000 C CNN
	1    6150 3700
	1    0    0    -1  
$EndComp
$Comp
L Device:D D22
U 1 1 5D8928AA
P 5800 3850
F 0 "D22" V 5846 3771 50  0000 R CNN
F 1 "D" V 5755 3771 50  0000 R CNN
F 2 "Keyboard1:D_SOD123_axial" H 5800 3850 50  0001 C CNN
F 3 "~" H 5800 3850 50  0001 C CNN
	1    5800 3850
	0    -1   -1   0   
$EndComp
Wire Wire Line
	5800 3600 5800 3700
Wire Wire Line
	6500 3150 6500 3600
$Comp
L Switch:SW_Push_LED K-d1
U 1 1 5D8928B4
P 7000 3700
F 0 "K-d1" H 7000 3933 60  0000 C CNN
F 1 "KEYSW" H 7000 3600 60  0001 C CNN
F 2 "Switches:Mx_Alps_100" H 7000 3700 60  0001 C CNN
F 3 "" H 7000 3700 60  0000 C CNN
	1    7000 3700
	1    0    0    -1  
$EndComp
$Comp
L Device:D D23
U 1 1 5D8928BA
P 6650 3850
F 0 "D23" V 6696 3771 50  0000 R CNN
F 1 "D" V 6605 3771 50  0000 R CNN
F 2 "Keyboard1:D_SOD123_axial" H 6650 3850 50  0001 C CNN
F 3 "~" H 6650 3850 50  0001 C CNN
	1    6650 3850
	0    -1   -1   0   
$EndComp
Wire Wire Line
	6650 3600 6650 3700
Wire Wire Line
	7350 3150 7350 3600
$Comp
L Switch:SW_Push_LED K-f1
U 1 1 5D8928C4
P 7850 3700
F 0 "K-f1" H 7850 3933 60  0000 C CNN
F 1 "KEYSW" H 7850 3600 60  0001 C CNN
F 2 "Switches:Mx_Alps_100" H 7850 3700 60  0001 C CNN
F 3 "" H 7850 3700 60  0000 C CNN
	1    7850 3700
	1    0    0    -1  
$EndComp
$Comp
L Device:D D24
U 1 1 5D8928CA
P 7500 3850
F 0 "D24" V 7546 3771 50  0000 R CNN
F 1 "D" V 7455 3771 50  0000 R CNN
F 2 "Keyboard1:D_SOD123_axial" H 7500 3850 50  0001 C CNN
F 3 "~" H 7500 3850 50  0001 C CNN
	1    7500 3850
	0    -1   -1   0   
$EndComp
Wire Wire Line
	7500 3600 7500 3700
Wire Wire Line
	8200 3150 8200 3600
$Comp
L Switch:SW_Push_LED K-g1
U 1 1 5D8928D4
P 8700 3700
F 0 "K-g1" H 8700 3933 60  0000 C CNN
F 1 "KEYSW" H 8700 3600 60  0001 C CNN
F 2 "Switches:Mx_Alps_100" H 8700 3700 60  0001 C CNN
F 3 "" H 8700 3700 60  0000 C CNN
	1    8700 3700
	1    0    0    -1  
$EndComp
$Comp
L Device:D D25
U 1 1 5D8928DA
P 8350 3850
F 0 "D25" V 8396 3771 50  0000 R CNN
F 1 "D" V 8305 3771 50  0000 R CNN
F 2 "Keyboard1:D_SOD123_axial" H 8350 3850 50  0001 C CNN
F 3 "~" H 8350 3850 50  0001 C CNN
	1    8350 3850
	0    -1   -1   0   
$EndComp
Wire Wire Line
	8350 3600 8350 3700
Wire Wire Line
	9050 3150 9050 3600
$Comp
L Switch:SW_Push_LED K-h1
U 1 1 5D8928E4
P 9550 3700
F 0 "K-h1" H 9550 3933 60  0000 C CNN
F 1 "KEYSW" H 9550 3600 60  0001 C CNN
F 2 "Switches:Mx_Alps_100" H 9550 3700 60  0001 C CNN
F 3 "" H 9550 3700 60  0000 C CNN
	1    9550 3700
	1    0    0    -1  
$EndComp
$Comp
L Device:D D26
U 1 1 5D8928EA
P 9200 3850
F 0 "D26" V 9246 3771 50  0000 R CNN
F 1 "D" V 9155 3771 50  0000 R CNN
F 2 "Keyboard1:D_SOD123_axial" H 9200 3850 50  0001 C CNN
F 3 "~" H 9200 3850 50  0001 C CNN
	1    9200 3850
	0    -1   -1   0   
$EndComp
Wire Wire Line
	9200 3600 9200 3700
Wire Wire Line
	9900 3150 9900 3600
$Comp
L Switch:SW_Push_LED K-j1
U 1 1 5D8928F4
P 10400 3700
F 0 "K-j1" H 10400 3933 60  0000 C CNN
F 1 "KEYSW" H 10400 3600 60  0001 C CNN
F 2 "Switches:Mx_Alps_100" H 10400 3700 60  0001 C CNN
F 3 "" H 10400 3700 60  0000 C CNN
	1    10400 3700
	1    0    0    -1  
$EndComp
$Comp
L Device:D D27
U 1 1 5D8928FA
P 10050 3850
F 0 "D27" V 10096 3771 50  0000 R CNN
F 1 "D" V 10005 3771 50  0000 R CNN
F 2 "Keyboard1:D_SOD123_axial" H 10050 3850 50  0001 C CNN
F 3 "~" H 10050 3850 50  0001 C CNN
	1    10050 3850
	0    -1   -1   0   
$EndComp
Wire Wire Line
	10050 3600 10050 3700
Wire Wire Line
	10750 3150 10750 3600
$Comp
L Switch:SW_Push_LED K-k1
U 1 1 5D892904
P 11250 3700
F 0 "K-k1" H 11250 3933 60  0000 C CNN
F 1 "KEYSW" H 11250 3600 60  0001 C CNN
F 2 "Switches:Mx_Alps_100" H 11250 3700 60  0001 C CNN
F 3 "" H 11250 3700 60  0000 C CNN
	1    11250 3700
	1    0    0    -1  
$EndComp
$Comp
L Device:D D28
U 1 1 5D89290A
P 10900 3850
F 0 "D28" V 10946 3771 50  0000 R CNN
F 1 "D" V 10855 3771 50  0000 R CNN
F 2 "Keyboard1:D_SOD123_axial" H 10900 3850 50  0001 C CNN
F 3 "~" H 10900 3850 50  0001 C CNN
	1    10900 3850
	0    -1   -1   0   
$EndComp
Wire Wire Line
	10900 3600 10900 3700
Wire Wire Line
	11600 3150 11600 3600
$Comp
L Switch:SW_Push_LED K-l1
U 1 1 5D892914
P 12100 3700
F 0 "K-l1" H 12100 3933 60  0000 C CNN
F 1 "KEYSW" H 12100 3600 60  0001 C CNN
F 2 "Switches:Mx_Alps_100" H 12100 3700 60  0001 C CNN
F 3 "" H 12100 3700 60  0000 C CNN
	1    12100 3700
	1    0    0    -1  
$EndComp
$Comp
L Device:D D29
U 1 1 5D89291A
P 11750 3850
F 0 "D29" V 11796 3771 50  0000 R CNN
F 1 "D" V 11705 3771 50  0000 R CNN
F 2 "Keyboard1:D_SOD123_axial" H 11750 3850 50  0001 C CNN
F 3 "~" H 11750 3850 50  0001 C CNN
	1    11750 3850
	0    -1   -1   0   
$EndComp
Wire Wire Line
	11750 3600 11750 3700
Wire Wire Line
	12450 3150 12450 3600
$Comp
L Switch:SW_Push_LED K-;1
U 1 1 5D892924
P 12950 3700
F 0 "K-;1" H 12950 3933 60  0000 C CNN
F 1 "KEYSW" H 12950 3600 60  0001 C CNN
F 2 "Switches:Mx_Alps_100" H 12950 3700 60  0001 C CNN
F 3 "" H 12950 3700 60  0000 C CNN
	1    12950 3700
	1    0    0    -1  
$EndComp
$Comp
L Device:D D210
U 1 1 5D89292A
P 12600 3850
F 0 "D210" V 12646 3771 50  0000 R CNN
F 1 "D" V 12555 3771 50  0000 R CNN
F 2 "Keyboard1:D_SOD123_axial" H 12600 3850 50  0001 C CNN
F 3 "~" H 12600 3850 50  0001 C CNN
	1    12600 3850
	0    -1   -1   0   
$EndComp
Wire Wire Line
	12600 3600 12600 3700
Wire Wire Line
	13300 3150 13300 3600
$Comp
L Switch:SW_Push_LED K-'1
U 1 1 5D892934
P 13800 3700
F 0 "K-'1" H 13800 3933 60  0000 C CNN
F 1 "KEYSW" H 13800 3600 60  0001 C CNN
F 2 "Switches:Mx_Alps_100" H 13800 3700 60  0001 C CNN
F 3 "" H 13800 3700 60  0000 C CNN
	1    13800 3700
	1    0    0    -1  
$EndComp
$Comp
L Device:D D211
U 1 1 5D89293A
P 13450 3850
F 0 "D211" V 13496 3771 50  0000 R CNN
F 1 "D" V 13405 3771 50  0000 R CNN
F 2 "Keyboard1:D_SOD123_axial" H 13450 3850 50  0001 C CNN
F 3 "~" H 13450 3850 50  0001 C CNN
	1    13450 3850
	0    -1   -1   0   
$EndComp
Wire Wire Line
	13450 3600 13450 3700
Wire Wire Line
	14150 3150 14150 3600
$Comp
L Switch:SW_Push_LED K-enter1
U 1 1 5D892944
P 14650 3700
F 0 "K-enter1" H 14650 3933 60  0000 C CNN
F 1 "KEYSW" H 14650 3600 60  0001 C CNN
F 2 "Switches:Mx_Alps_225" H 14650 3700 60  0001 C CNN
F 3 "" H 14650 3700 60  0000 C CNN
	1    14650 3700
	1    0    0    -1  
$EndComp
$Comp
L Device:D D212
U 1 1 5D89294A
P 14300 3850
F 0 "D212" V 14346 3771 50  0000 R CNN
F 1 "D" V 14255 3771 50  0000 R CNN
F 2 "Keyboard1:D_SOD123_axial" H 14300 3850 50  0001 C CNN
F 3 "~" H 14300 3850 50  0001 C CNN
	1    14300 3850
	0    -1   -1   0   
$EndComp
Wire Wire Line
	14300 3600 14300 3700
Wire Wire Line
	15000 3150 15000 3600
Wire Wire Line
	4950 4000 4100 4000
Connection ~ 4100 4000
Connection ~ 4950 4000
Connection ~ 5800 4000
Wire Wire Line
	5800 4000 4950 4000
Connection ~ 6650 4000
Wire Wire Line
	6650 4000 5800 4000
Connection ~ 7500 4000
Wire Wire Line
	7500 4000 6650 4000
Connection ~ 8350 4000
Wire Wire Line
	8350 4000 7500 4000
Connection ~ 9200 4000
Wire Wire Line
	9200 4000 8350 4000
Connection ~ 10050 4000
Wire Wire Line
	10050 4000 9200 4000
Connection ~ 10900 4000
Wire Wire Line
	10900 4000 10050 4000
Connection ~ 11750 4000
Wire Wire Line
	11750 4000 10900 4000
Connection ~ 12600 4000
Wire Wire Line
	12600 4000 11750 4000
Connection ~ 13450 4000
Wire Wire Line
	13450 4000 12600 4000
Wire Wire Line
	14300 4000 13450 4000
Wire Wire Line
	5450 10050 5700 10050
$Comp
L KeyBoard_Components:GND #PWR0104
U 1 1 5D751F27
P 5700 10050
F 0 "#PWR0104" H 5700 10100 20  0001 C CNN
F 1 "GND" H 5650 9950 30  0000 L CNN
F 2 "" H 5700 10050 60  0000 C CNN
F 3 "" H 5700 10050 60  0000 C CNN
	1    5700 10050
	0    -1   -1   0   
$EndComp
Wire Wire Line
	5450 8850 5600 8850
$Comp
L KeyBoard_Components:GND #PWR0105
U 1 1 5D74F8FA
P 5600 8850
F 0 "#PWR0105" H 5600 8900 20  0001 C CNN
F 1 "GND" H 5550 8750 30  0000 L CNN
F 2 "" H 5600 8850 60  0000 C CNN
F 3 "" H 5600 8850 60  0000 C CNN
	1    5600 8850
	0    -1   -1   0   
$EndComp
$Comp
L KeyBoard_Components:GND #PWR0106
U 1 1 5D74E3B8
P 5450 8050
F 0 "#PWR0106" H 5450 8100 20  0001 C CNN
F 1 "GND" H 5400 7950 30  0000 L CNN
F 2 "" H 5450 8050 60  0000 C CNN
F 3 "" H 5450 8050 60  0000 C CNN
	1    5450 8050
	0    -1   -1   0   
$EndComp
$Comp
L KeyBoard_Components:GND #PWR0107
U 1 1 5D74CE4B
P 3300 9350
F 0 "#PWR0107" H 3300 9400 20  0001 C CNN
F 1 "GND" H 3250 9250 30  0000 L CNN
F 2 "" H 3300 9350 60  0000 C CNN
F 3 "" H 3300 9350 60  0000 C CNN
	1    3300 9350
	0    1    1    0   
$EndComp
$Comp
L power:VCC #PWR0108
U 1 1 5D746032
P 5450 9950
F 0 "#PWR0108" H 5450 9800 50  0001 C CNN
F 1 "VCC" H 5467 10123 50  0000 C CNN
F 2 "" H 5450 9950 50  0001 C CNN
F 3 "" H 5450 9950 50  0001 C CNN
	1    5450 9950
	0    1    1    0   
$EndComp
$Comp
L power:VCC #PWR0109
U 1 1 5D744E00
P 5450 8950
F 0 "#PWR0109" H 5450 8800 50  0001 C CNN
F 1 "VCC" H 5450 9100 50  0000 C CNN
F 2 "" H 5450 8950 50  0001 C CNN
F 3 "" H 5450 8950 50  0001 C CNN
	1    5450 8950
	0    1    1    0   
$EndComp
$Comp
L power:VCC #PWR0110
U 1 1 5D743D16
P 5450 7950
F 0 "#PWR0110" H 5450 7800 50  0001 C CNN
F 1 "VCC" H 5467 8123 50  0000 C CNN
F 2 "" H 5450 7950 50  0001 C CNN
F 3 "" H 5450 7950 50  0001 C CNN
	1    5450 7950
	0    1    1    0   
$EndComp
$Comp
L power:VCC #PWR0111
U 1 1 5D742AAC
P 3300 9250
F 0 "#PWR0111" H 3300 9100 50  0001 C CNN
F 1 "VCC" H 3317 9423 50  0000 C CNN
F 2 "" H 3300 9250 50  0001 C CNN
F 3 "" H 3300 9250 50  0001 C CNN
	1    3300 9250
	0    -1   -1   0   
$EndComp
Wire Wire Line
	2750 8450 3300 8450
Wire Wire Line
	2450 8250 3300 8250
Wire Wire Line
	2450 8150 3300 8150
Wire Wire Line
	2300 8350 3300 8350
Wire Wire Line
	2000 8050 3300 8050
Wire Wire Line
	1950 8450 2300 8450
Connection ~ 1950 8450
Wire Wire Line
	1950 8550 1950 8450
Wire Wire Line
	1800 8550 1950 8550
Connection ~ 2300 8450
Wire Wire Line
	1800 8450 1950 8450
Connection ~ 2300 8350
Wire Wire Line
	2300 8450 2450 8450
Wire Wire Line
	2300 8350 2300 8450
Wire Wire Line
	2150 8350 2300 8350
Wire Wire Line
	1800 8250 2150 8250
Wire Wire Line
	2150 8150 1800 8150
Connection ~ 2000 8050
Wire Wire Line
	2000 8050 2000 7900
Wire Wire Line
	1800 8050 2000 8050
$Comp
L Device:C C8
U 1 1 5D71829A
P 2600 8450
F 0 "C8" V 2650 8350 50  0000 C CNN
F 1 "1u" V 2650 8550 50  0000 C CNN
F 2 "Capacitor_SMD:C_0805_2012Metric" H 2638 8300 50  0001 C CNN
F 3 "~" H 2600 8450 50  0001 C CNN
	1    2600 8450
	0    1    1    0   
$EndComp
$Comp
L KeyBoard_Components:GND #PWR0112
U 1 1 5D717B4A
P 2150 8350
F 0 "#PWR0112" H 2150 8400 20  0001 C CNN
F 1 "GND" H 2100 8250 30  0000 L CNN
F 2 "" H 2150 8350 60  0000 C CNN
F 3 "" H 2150 8350 60  0000 C CNN
	1    2150 8350
	0    1    1    0   
$EndComp
$Comp
L Device:R R4
U 1 1 5D717621
P 2300 8250
F 0 "R4" V 2300 8200 50  0000 C CNN
F 1 "22" V 2300 8300 50  0000 C CNN
F 2 "Resistor_SMD:R_0805_2012Metric" V 2230 8250 50  0001 C CNN
F 3 "~" H 2300 8250 50  0001 C CNN
	1    2300 8250
	0    1    1    0   
$EndComp
$Comp
L Device:R R3
U 1 1 5D71700A
P 2300 8150
F 0 "R3" V 2300 8100 50  0000 C CNN
F 1 "22" V 2300 8200 50  0000 C CNN
F 2 "Resistor_SMD:R_0805_2012Metric" V 2230 8150 50  0001 C CNN
F 3 "~" H 2300 8150 50  0001 C CNN
	1    2300 8150
	0    1    1    0   
$EndComp
$Comp
L power:VCC #PWR0113
U 1 1 5D715BE6
P 2000 7900
F 0 "#PWR0113" H 2000 7750 50  0001 C CNN
F 1 "VCC" H 2017 8073 50  0000 C CNN
F 2 "" H 2000 7900 50  0001 C CNN
F 3 "" H 2000 7900 50  0001 C CNN
	1    2000 7900
	1    0    0    -1  
$EndComp
$Comp
L KeyBoard_Components:USB_mini_micro_B J1
U 1 1 5D713B43
P 1650 8200
F 0 "J1" H 1250 8100 60  0000 C CNN
F 1 "USB_mini_micro_B" H 1500 8450 60  0001 C CNN
F 2 "Keyboard1:USB_miniB_hirose_5S8" H 1600 8200 60  0001 C CNN
F 3 "" H 1600 8200 60  0000 C CNN
	1    1650 8200
	1    0    0    -1  
$EndComp
Wire Wire Line
	2950 8800 2950 9150
Connection ~ 2950 9150
Wire Wire Line
	3300 9150 2950 9150
Wire Wire Line
	2800 8800 2950 8800
Wire Wire Line
	2100 9150 2350 9150
Wire Wire Line
	2100 8800 2500 8800
$Comp
L power:VCC #PWR0114
U 1 1 5D6FD6F9
P 2100 9150
F 0 "#PWR0114" H 2100 9000 50  0001 C CNN
F 1 "VCC" V 2118 9277 50  0000 L CNN
F 2 "" H 2100 9150 50  0001 C CNN
F 3 "" H 2100 9150 50  0001 C CNN
	1    2100 9150
	0    -1   -1   0   
$EndComp
$Comp
L KeyBoard_Components:GND #PWR0115
U 1 1 5D6FD0A8
P 2100 8800
F 0 "#PWR0115" H 2100 8850 20  0001 C CNN
F 1 "GND" V 2100 8829 30  0000 L CNN
F 2 "" H 2100 8800 60  0000 C CNN
F 3 "" H 2100 8800 60  0000 C CNN
	1    2100 8800
	0    1    1    0   
$EndComp
$Comp
L KeyBoard_Components:SW_PUSH SW1
U 1 1 5D6FC4B5
P 2650 9150
F 0 "SW1" H 2650 9405 50  0000 C CNN
F 1 "SW_PUSH" H 2650 9314 50  0000 C CNN
F 2 "Button_Switch_SMD:SW_SPST_TL3342" H 2650 9150 60  0001 C CNN
F 3 "" H 2650 9150 60  0000 C CNN
	1    2650 9150
	1    0    0    -1  
$EndComp
$Comp
L Device:R R1
U 1 1 5D6FBF45
P 2650 8800
F 0 "R1" V 2550 8800 50  0000 C CNN
F 1 "10k" V 2650 8800 50  0000 C CNN
F 2 "Resistor_SMD:R_0805_2012Metric" V 2580 8800 50  0001 C CNN
F 3 "~" H 2650 8800 50  0001 C CNN
	1    2650 8800
	0    1    1    0   
$EndComp
Wire Wire Line
	5550 9050 5450 9050
$Comp
L Device:R R2
U 1 1 5D6F3CFF
P 5700 9050
F 0 "R2" V 5600 9100 50  0000 C CNN
F 1 "10k" V 5700 9050 50  0000 C CNN
F 2 "Resistor_SMD:R_0805_2012Metric" V 5630 9050 50  0001 C CNN
F 3 "~" H 5700 9050 50  0001 C CNN
	1    5700 9050
	0    1    1    0   
$EndComp
Connection ~ 1700 9750
Wire Wire Line
	1700 9550 1700 9750
Wire Wire Line
	3300 9550 1700 9550
Connection ~ 900  9750
Wire Wire Line
	900  9350 1700 9350
Wire Wire Line
	1700 9450 3300 9450
Wire Wire Line
	1700 9350 1700 9450
Wire Wire Line
	900  9750 900  9350
Wire Wire Line
	1700 9750 1700 9950
Wire Wire Line
	900  9750 900  9950
Connection ~ 1300 10350
Wire Wire Line
	1700 10350 1300 10350
Wire Wire Line
	1700 10150 1700 10350
Wire Wire Line
	900  10350 1300 10350
Wire Wire Line
	900  10150 900  10350
$Comp
L Device:C_Small C1
U 1 1 5D6C18BD
P 900 10050
F 0 "C1" H 992 10096 50  0000 L CNN
F 1 "22p" H 992 10005 50  0000 L CNN
F 2 "Capacitor_SMD:C_0805_2012Metric" H 900 10050 50  0001 C CNN
F 3 "~" H 900 10050 50  0001 C CNN
	1    900  10050
	1    0    0    -1  
$EndComp
$Comp
L KeyBoard_Components:GND #PWR0116
U 1 1 5D6C2ABC
P 1300 10350
F 0 "#PWR0116" H 1300 10400 20  0001 C CNN
F 1 "GND" H 1300 10409 30  0000 C CNN
F 2 "" H 1300 10350 60  0000 C CNN
F 3 "" H 1300 10350 60  0000 C CNN
	1    1300 10350
	1    0    0    -1  
$EndComp
$Comp
L Device:C_Small C2
U 1 1 5D6C1FB6
P 1700 10050
F 0 "C2" H 1792 10096 50  0000 L CNN
F 1 "22p" H 1792 10005 50  0000 L CNN
F 2 "Capacitor_SMD:C_0805_2012Metric" H 1700 10050 50  0001 C CNN
F 3 "~" H 1700 10050 50  0001 C CNN
	1    1700 10050
	1    0    0    -1  
$EndComp
Text HLabel 2900 9750 0    50   Input ~ 0
col0
Text HLabel 3000 8500 0    50   Input ~ 0
col1
Text HLabel 6950 8450 2    50   Input ~ 0
col2
Text HLabel 6950 8600 2    50   Input ~ 0
col3
Text HLabel 6950 8750 2    50   Input ~ 0
col4
Text HLabel 6950 8900 2    50   Input ~ 0
col5
Text HLabel 6950 9050 2    50   Input ~ 0
col6
Text HLabel 6950 9200 2    50   Input ~ 0
col7
Text HLabel 6950 9350 2    50   Input ~ 0
col8
Text HLabel 6950 9500 2    50   Input ~ 0
col9
Text HLabel 6950 9650 2    50   Input ~ 0
col10
Text HLabel 6950 9800 2    50   Input ~ 0
col11
Text HLabel 6950 9950 2    50   Input ~ 0
col12
Text HLabel 6950 10100 2    50   Input ~ 0
col13
$Comp
L Switch:SW_Push_LED K-lshft1
U 1 1 5DD885F4
P 4450 4650
F 0 "K-lshft1" H 4450 4883 60  0000 C CNN
F 1 "KEYSW" H 4450 4550 60  0001 C CNN
F 2 "Switches:Mx_Alps_225" H 4450 4650 60  0001 C CNN
F 3 "" H 4450 4650 60  0000 C CNN
	1    4450 4650
	1    0    0    -1  
$EndComp
$Comp
L Device:D D30
U 1 1 5DD885FA
P 4100 4800
F 0 "D30" V 4146 4721 50  0000 R CNN
F 1 "D" V 4055 4721 50  0000 R CNN
F 2 "Keyboard1:D_SOD123_axial" H 4100 4800 50  0001 C CNN
F 3 "~" H 4100 4800 50  0001 C CNN
	1    4100 4800
	0    -1   -1   0   
$EndComp
Wire Wire Line
	4100 4550 4100 4650
Text HLabel 3900 4950 0    50   Input ~ 0
row3
Wire Wire Line
	4100 4950 3900 4950
$Comp
L Switch:SW_Push_LED K-z1
U 1 1 5DD88606
P 5300 4650
F 0 "K-z1" H 5300 4883 60  0000 C CNN
F 1 "KEYSW" H 5300 4550 60  0001 C CNN
F 2 "Switches:Mx_Alps_100" H 5300 4650 60  0001 C CNN
F 3 "" H 5300 4650 60  0000 C CNN
	1    5300 4650
	1    0    0    -1  
$EndComp
$Comp
L Device:D D31
U 1 1 5DD8860C
P 4950 4800
F 0 "D31" V 4996 4721 50  0000 R CNN
F 1 "D" V 4905 4721 50  0000 R CNN
F 2 "Keyboard1:D_SOD123_axial" H 4950 4800 50  0001 C CNN
F 3 "~" H 4950 4800 50  0001 C CNN
	1    4950 4800
	0    -1   -1   0   
$EndComp
Wire Wire Line
	4950 4550 4950 4650
Wire Wire Line
	5650 4100 5650 4550
$Comp
L Switch:SW_Push_LED K-x1
U 1 1 5DD88616
P 6150 4650
F 0 "K-x1" H 6150 4883 60  0000 C CNN
F 1 "KEYSW" H 6150 4550 60  0001 C CNN
F 2 "Switches:Mx_Alps_100" H 6150 4650 60  0001 C CNN
F 3 "" H 6150 4650 60  0000 C CNN
	1    6150 4650
	1    0    0    -1  
$EndComp
$Comp
L Device:D D32
U 1 1 5DD8861C
P 5800 4800
F 0 "D32" V 5846 4721 50  0000 R CNN
F 1 "D" V 5755 4721 50  0000 R CNN
F 2 "Keyboard1:D_SOD123_axial" H 5800 4800 50  0001 C CNN
F 3 "~" H 5800 4800 50  0001 C CNN
	1    5800 4800
	0    -1   -1   0   
$EndComp
Wire Wire Line
	5800 4550 5800 4650
Wire Wire Line
	6500 4100 6500 4550
$Comp
L Switch:SW_Push_LED K-c1
U 1 1 5DD88626
P 7000 4650
F 0 "K-c1" H 7000 4883 60  0000 C CNN
F 1 "KEYSW" H 7000 4550 60  0001 C CNN
F 2 "Switches:Mx_Alps_100" H 7000 4650 60  0001 C CNN
F 3 "" H 7000 4650 60  0000 C CNN
	1    7000 4650
	1    0    0    -1  
$EndComp
$Comp
L Device:D D33
U 1 1 5DD8862C
P 6650 4800
F 0 "D33" V 6696 4721 50  0000 R CNN
F 1 "D" V 6605 4721 50  0000 R CNN
F 2 "Keyboard1:D_SOD123_axial" H 6650 4800 50  0001 C CNN
F 3 "~" H 6650 4800 50  0001 C CNN
	1    6650 4800
	0    -1   -1   0   
$EndComp
Wire Wire Line
	6650 4550 6650 4650
Wire Wire Line
	7350 4100 7350 4550
$Comp
L Switch:SW_Push_LED K-v1
U 1 1 5DD88636
P 7850 4650
F 0 "K-v1" H 7850 4883 60  0000 C CNN
F 1 "KEYSW" H 7850 4550 60  0001 C CNN
F 2 "Switches:Mx_Alps_100" H 7850 4650 60  0001 C CNN
F 3 "" H 7850 4650 60  0000 C CNN
	1    7850 4650
	1    0    0    -1  
$EndComp
$Comp
L Device:D D34
U 1 1 5DD8863C
P 7500 4800
F 0 "D34" V 7546 4721 50  0000 R CNN
F 1 "D" V 7455 4721 50  0000 R CNN
F 2 "Keyboard1:D_SOD123_axial" H 7500 4800 50  0001 C CNN
F 3 "~" H 7500 4800 50  0001 C CNN
	1    7500 4800
	0    -1   -1   0   
$EndComp
Wire Wire Line
	7500 4550 7500 4650
Wire Wire Line
	8200 4100 8200 4550
$Comp
L Switch:SW_Push_LED K-b1
U 1 1 5DD88646
P 8700 4650
F 0 "K-b1" H 8700 4883 60  0000 C CNN
F 1 "KEYSW" H 8700 4550 60  0001 C CNN
F 2 "Switches:Mx_Alps_100" H 8700 4650 60  0001 C CNN
F 3 "" H 8700 4650 60  0000 C CNN
	1    8700 4650
	1    0    0    -1  
$EndComp
$Comp
L Device:D D35
U 1 1 5DD8864C
P 8350 4800
F 0 "D35" V 8396 4721 50  0000 R CNN
F 1 "D" V 8305 4721 50  0000 R CNN
F 2 "Keyboard1:D_SOD123_axial" H 8350 4800 50  0001 C CNN
F 3 "~" H 8350 4800 50  0001 C CNN
	1    8350 4800
	0    -1   -1   0   
$EndComp
Wire Wire Line
	8350 4550 8350 4650
Wire Wire Line
	9050 4100 9050 4550
$Comp
L Switch:SW_Push_LED K-n1
U 1 1 5DD88656
P 9550 4650
F 0 "K-n1" H 9550 4883 60  0000 C CNN
F 1 "KEYSW" H 9550 4550 60  0001 C CNN
F 2 "Switches:Mx_Alps_100" H 9550 4650 60  0001 C CNN
F 3 "" H 9550 4650 60  0000 C CNN
	1    9550 4650
	1    0    0    -1  
$EndComp
$Comp
L Device:D D36
U 1 1 5DD8865C
P 9200 4800
F 0 "D36" V 9246 4721 50  0000 R CNN
F 1 "D" V 9155 4721 50  0000 R CNN
F 2 "Keyboard1:D_SOD123_axial" H 9200 4800 50  0001 C CNN
F 3 "~" H 9200 4800 50  0001 C CNN
	1    9200 4800
	0    -1   -1   0   
$EndComp
Wire Wire Line
	9200 4550 9200 4650
Wire Wire Line
	9900 4100 9900 4550
$Comp
L Switch:SW_Push_LED K-m1
U 1 1 5DD88666
P 10400 4650
F 0 "K-m1" H 10400 4883 60  0000 C CNN
F 1 "KEYSW" H 10400 4550 60  0001 C CNN
F 2 "Switches:Mx_Alps_100" H 10400 4650 60  0001 C CNN
F 3 "" H 10400 4650 60  0000 C CNN
	1    10400 4650
	1    0    0    -1  
$EndComp
$Comp
L Device:D D37
U 1 1 5DD8866C
P 10050 4800
F 0 "D37" V 10096 4721 50  0000 R CNN
F 1 "D" V 10005 4721 50  0000 R CNN
F 2 "Keyboard1:D_SOD123_axial" H 10050 4800 50  0001 C CNN
F 3 "~" H 10050 4800 50  0001 C CNN
	1    10050 4800
	0    -1   -1   0   
$EndComp
Wire Wire Line
	10050 4550 10050 4650
Wire Wire Line
	10750 4100 10750 4550
$Comp
L Switch:SW_Push_LED K-,1
U 1 1 5DD88676
P 11250 4650
F 0 "K-,1" H 11250 4883 60  0000 C CNN
F 1 "KEYSW" H 11250 4550 60  0001 C CNN
F 2 "Switches:Mx_Alps_100" H 11250 4650 60  0001 C CNN
F 3 "" H 11250 4650 60  0000 C CNN
	1    11250 4650
	1    0    0    -1  
$EndComp
$Comp
L Device:D D38
U 1 1 5DD8867C
P 10900 4800
F 0 "D38" V 10946 4721 50  0000 R CNN
F 1 "D" V 10855 4721 50  0000 R CNN
F 2 "Keyboard1:D_SOD123_axial" H 10900 4800 50  0001 C CNN
F 3 "~" H 10900 4800 50  0001 C CNN
	1    10900 4800
	0    -1   -1   0   
$EndComp
Wire Wire Line
	10900 4550 10900 4650
Wire Wire Line
	11600 4100 11600 4550
$Comp
L Switch:SW_Push_LED K-.1
U 1 1 5DD88686
P 12100 4650
F 0 "K-.1" H 12100 4883 60  0000 C CNN
F 1 "KEYSW" H 12100 4550 60  0001 C CNN
F 2 "Switches:Mx_Alps_100" H 12100 4650 60  0001 C CNN
F 3 "" H 12100 4650 60  0000 C CNN
	1    12100 4650
	1    0    0    -1  
$EndComp
$Comp
L Device:D D39
U 1 1 5DD8868C
P 11750 4800
F 0 "D39" V 11796 4721 50  0000 R CNN
F 1 "D" V 11705 4721 50  0000 R CNN
F 2 "Keyboard1:D_SOD123_axial" H 11750 4800 50  0001 C CNN
F 3 "~" H 11750 4800 50  0001 C CNN
	1    11750 4800
	0    -1   -1   0   
$EndComp
Wire Wire Line
	11750 4550 11750 4650
Wire Wire Line
	12450 4100 12450 4550
$Comp
L Switch:SW_Push_LED K-/1
U 1 1 5DD88696
P 12950 4650
F 0 "K-/1" H 12950 4883 60  0000 C CNN
F 1 "KEYSW" H 12950 4550 60  0001 C CNN
F 2 "Switches:Mx_Alps_100" H 12950 4650 60  0001 C CNN
F 3 "" H 12950 4650 60  0000 C CNN
	1    12950 4650
	1    0    0    -1  
$EndComp
$Comp
L Device:D D310
U 1 1 5DD8869C
P 12600 4800
F 0 "D310" V 12646 4721 50  0000 R CNN
F 1 "D" V 12555 4721 50  0000 R CNN
F 2 "Keyboard1:D_SOD123_axial" H 12600 4800 50  0001 C CNN
F 3 "~" H 12600 4800 50  0001 C CNN
	1    12600 4800
	0    -1   -1   0   
$EndComp
Wire Wire Line
	12600 4550 12600 4650
Wire Wire Line
	13300 4100 13300 4550
$Comp
L Switch:SW_Push_LED K-rshft1
U 1 1 5DD886A6
P 13800 4650
F 0 "K-rshft1" H 13800 4883 60  0000 C CNN
F 1 "KEYSW" H 13800 4550 60  0001 C CNN
F 2 "Switches:Mx_Alps_225" H 13800 4650 60  0001 C CNN
F 3 "" H 13800 4650 60  0000 C CNN
	1    13800 4650
	1    0    0    -1  
$EndComp
$Comp
L Device:D D311
U 1 1 5DD886AC
P 13450 4800
F 0 "D311" V 13496 4721 50  0000 R CNN
F 1 "D" V 13405 4721 50  0000 R CNN
F 2 "Keyboard1:D_SOD123_axial" H 13450 4800 50  0001 C CNN
F 3 "~" H 13450 4800 50  0001 C CNN
	1    13450 4800
	0    -1   -1   0   
$EndComp
Wire Wire Line
	13450 4550 13450 4650
Wire Wire Line
	14150 4100 14150 4550
Wire Wire Line
	4950 4950 4100 4950
Connection ~ 4100 4950
Connection ~ 4950 4950
Connection ~ 5800 4950
Wire Wire Line
	5800 4950 4950 4950
Connection ~ 6650 4950
Wire Wire Line
	6650 4950 5800 4950
Connection ~ 7500 4950
Wire Wire Line
	7500 4950 6650 4950
Connection ~ 8350 4950
Wire Wire Line
	8350 4950 7500 4950
Connection ~ 9200 4950
Connection ~ 10050 4950
Wire Wire Line
	10050 4950 9200 4950
Connection ~ 10900 4950
Wire Wire Line
	10900 4950 10050 4950
Connection ~ 11750 4950
Wire Wire Line
	11750 4950 10900 4950
Connection ~ 12600 4950
Wire Wire Line
	12600 4950 11750 4950
Wire Wire Line
	13450 4950 12600 4950
$Comp
L Switch:SW_Push_LED K-lctrl1
U 1 1 5DDB25FD
P 4450 5650
F 0 "K-lctrl1" H 4450 5883 60  0000 C CNN
F 1 "KEYSW" H 4450 5550 60  0001 C CNN
F 2 "Switches:Mx_Alps_125" H 4450 5650 60  0001 C CNN
F 3 "" H 4450 5650 60  0000 C CNN
	1    4450 5650
	1    0    0    -1  
$EndComp
$Comp
L Device:D D40
U 1 1 5DDB2603
P 4100 5800
F 0 "D40" V 4146 5721 50  0000 R CNN
F 1 "D" V 4055 5721 50  0000 R CNN
F 2 "Keyboard1:D_SOD123_axial" H 4100 5800 50  0001 C CNN
F 3 "~" H 4100 5800 50  0001 C CNN
	1    4100 5800
	0    -1   -1   0   
$EndComp
Wire Wire Line
	4100 5550 4100 5650
Text HLabel 3900 5950 0    50   Input ~ 0
row4
Wire Wire Line
	4800 5100 4800 5550
Wire Wire Line
	4100 5950 3900 5950
$Comp
L Switch:SW_Push_LED K-win1
U 1 1 5DDB260F
P 5300 5650
F 0 "K-win1" H 5300 5883 60  0000 C CNN
F 1 "KEYSW" H 5300 5550 60  0001 C CNN
F 2 "Switches:Mx_Alps_125" H 5300 5650 60  0001 C CNN
F 3 "" H 5300 5650 60  0000 C CNN
	1    5300 5650
	1    0    0    -1  
$EndComp
$Comp
L Device:D D41
U 1 1 5DDB2615
P 4950 5800
F 0 "D41" V 4996 5721 50  0000 R CNN
F 1 "D" V 4905 5721 50  0000 R CNN
F 2 "Keyboard1:D_SOD123_axial" H 4950 5800 50  0001 C CNN
F 3 "~" H 4950 5800 50  0001 C CNN
	1    4950 5800
	0    -1   -1   0   
$EndComp
Wire Wire Line
	4950 5550 4950 5650
Wire Wire Line
	5650 5100 5650 5550
$Comp
L Switch:SW_Push_LED K-alt1
U 1 1 5DDB261F
P 6150 5650
F 0 "K-alt1" H 6150 5883 60  0000 C CNN
F 1 "KEYSW" H 6150 5550 60  0001 C CNN
F 2 "Switches:Mx_Alps_125" H 6150 5650 60  0001 C CNN
F 3 "" H 6150 5650 60  0000 C CNN
	1    6150 5650
	1    0    0    -1  
$EndComp
$Comp
L Device:D D42
U 1 1 5DDB2625
P 5800 5800
F 0 "D42" V 5846 5721 50  0000 R CNN
F 1 "D" V 5755 5721 50  0000 R CNN
F 2 "Keyboard1:D_SOD123_axial" H 5800 5800 50  0001 C CNN
F 3 "~" H 5800 5800 50  0001 C CNN
	1    5800 5800
	0    -1   -1   0   
$EndComp
Wire Wire Line
	5800 5550 5800 5650
Wire Wire Line
	6500 5100 6500 5550
$Comp
L Switch:SW_Push_LED K-space1
U 1 1 5DDB262F
P 7000 5650
F 0 "K-space1" H 7000 5883 60  0000 C CNN
F 1 "KEYSW" H 7000 5550 60  0001 C CNN
F 2 "Switches:Mx_Alps_625" H 7000 5650 60  0001 C CNN
F 3 "" H 7000 5650 60  0000 C CNN
	1    7000 5650
	1    0    0    -1  
$EndComp
$Comp
L Device:D D43
U 1 1 5DDB2635
P 6650 5800
F 0 "D43" V 6696 5721 50  0000 R CNN
F 1 "D" V 6605 5721 50  0000 R CNN
F 2 "Keyboard1:D_SOD123_axial" H 6650 5800 50  0001 C CNN
F 3 "~" H 6650 5800 50  0001 C CNN
	1    6650 5800
	0    -1   -1   0   
$EndComp
Wire Wire Line
	6650 5550 6650 5650
Wire Wire Line
	7350 5100 7350 5550
$Comp
L Switch:SW_Push_LED K-alt2
U 1 1 5DDB264F
P 7850 5650
F 0 "K-alt2" H 7850 5883 60  0000 C CNN
F 1 "KEYSW" H 7850 5550 60  0001 C CNN
F 2 "Switches:Mx_Alps_125" H 7850 5650 60  0001 C CNN
F 3 "" H 7850 5650 60  0000 C CNN
	1    7850 5650
	1    0    0    -1  
$EndComp
Wire Wire Line
	8200 5100 8200 5550
$Comp
L Switch:SW_Push_LED K-fn1
U 1 1 5DDB265F
P 8700 5650
F 0 "K-fn1" H 8700 5883 60  0000 C CNN
F 1 "KEYSW" H 8700 5550 60  0001 C CNN
F 2 "Switches:Mx_Alps_125" H 8700 5650 60  0001 C CNN
F 3 "" H 8700 5650 60  0000 C CNN
	1    8700 5650
	1    0    0    -1  
$EndComp
$Comp
L Device:D D46
U 1 1 5DDB2665
P 8350 5800
F 0 "D46" V 8396 5721 50  0000 R CNN
F 1 "D" V 8305 5721 50  0000 R CNN
F 2 "Keyboard1:D_SOD123_axial" H 8350 5800 50  0001 C CNN
F 3 "~" H 8350 5800 50  0001 C CNN
	1    8350 5800
	0    -1   -1   0   
$EndComp
Wire Wire Line
	8350 5550 8350 5650
Wire Wire Line
	9050 5100 9050 5550
$Comp
L Switch:SW_Push_LED K-menu1
U 1 1 5DDB266F
P 9550 5650
F 0 "K-menu1" H 9550 5883 60  0000 C CNN
F 1 "KEYSW" H 9550 5550 60  0001 C CNN
F 2 "Switches:Mx_Alps_125" H 9550 5650 60  0001 C CNN
F 3 "" H 9550 5650 60  0000 C CNN
	1    9550 5650
	1    0    0    -1  
$EndComp
$Comp
L Device:D D47
U 1 1 5DDB2675
P 9200 5800
F 0 "D47" V 9246 5721 50  0000 R CNN
F 1 "D" V 9155 5721 50  0000 R CNN
F 2 "Keyboard1:D_SOD123_axial" H 9200 5800 50  0001 C CNN
F 3 "~" H 9200 5800 50  0001 C CNN
	1    9200 5800
	0    -1   -1   0   
$EndComp
Wire Wire Line
	9200 5550 9200 5650
Wire Wire Line
	9900 5100 9900 5550
$Comp
L Switch:SW_Push_LED K-rctrl1
U 1 1 5DDB267F
P 10400 5650
F 0 "K-rctrl1" H 10400 5883 60  0000 C CNN
F 1 "KEYSW" H 10400 5550 60  0001 C CNN
F 2 "Switches:Mx_Alps_125" H 10400 5650 60  0001 C CNN
F 3 "" H 10400 5650 60  0000 C CNN
	1    10400 5650
	1    0    0    -1  
$EndComp
$Comp
L Device:D D48
U 1 1 5DDB2685
P 10050 5800
F 0 "D48" V 10096 5721 50  0000 R CNN
F 1 "D" V 10005 5721 50  0000 R CNN
F 2 "Keyboard1:D_SOD123_axial" H 10050 5800 50  0001 C CNN
F 3 "~" H 10050 5800 50  0001 C CNN
	1    10050 5800
	0    -1   -1   0   
$EndComp
Wire Wire Line
	10050 5550 10050 5650
Wire Wire Line
	10750 5100 10750 5550
Wire Wire Line
	4950 5950 4100 5950
Connection ~ 4100 5950
Connection ~ 4950 5950
Connection ~ 5800 5950
Wire Wire Line
	5800 5950 4950 5950
Connection ~ 6650 5950
Wire Wire Line
	6650 5950 5800 5950
Connection ~ 9200 5950
Wire Wire Line
	10050 5950 9200 5950
Wire Wire Line
	4850 1750 4850 2650
Connection ~ 4850 1750
Wire Wire Line
	4850 2650 4850 3600
Wire Wire Line
	4850 5100 4800 5100
Connection ~ 4850 2650
Wire Wire Line
	4150 3050 5000 3050
Connection ~ 4850 3600
Wire Wire Line
	4850 3600 4850 4550
Connection ~ 4850 4550
Wire Wire Line
	4850 4550 4850 5100
Wire Wire Line
	5700 1750 5700 2650
Connection ~ 5700 1750
Wire Wire Line
	5700 2650 5700 3150
Wire Wire Line
	5700 5100 5650 5100
Connection ~ 5700 2650
Wire Wire Line
	5650 4100 5700 4100
Connection ~ 5700 4100
Wire Wire Line
	5700 4100 5700 5100
Wire Wire Line
	5650 3150 5700 3150
Connection ~ 5700 3150
Wire Wire Line
	5700 3150 5700 4100
Wire Wire Line
	6550 1750 6550 2650
Connection ~ 6550 1750
Wire Wire Line
	6550 2650 6550 3150
Wire Wire Line
	6550 5100 6500 5100
Connection ~ 6550 2650
Wire Wire Line
	6500 4100 6550 4100
Connection ~ 6550 4100
Wire Wire Line
	6550 4100 6550 5100
Wire Wire Line
	6500 3150 6550 3150
Connection ~ 6550 3150
Wire Wire Line
	6550 3150 6550 4100
Wire Wire Line
	7400 1750 7400 2650
Connection ~ 7400 1750
Wire Wire Line
	7400 2650 7400 3150
Wire Wire Line
	7400 5100 7350 5100
Connection ~ 7400 2650
Wire Wire Line
	7400 4100 7350 4100
Connection ~ 7400 4100
Wire Wire Line
	7400 4100 7400 5100
Wire Wire Line
	7350 3150 7400 3150
Connection ~ 7400 3150
Wire Wire Line
	7400 3150 7400 4100
Wire Wire Line
	8250 1750 8250 2650
Connection ~ 8250 1750
Wire Wire Line
	8250 2650 8250 3150
Connection ~ 8250 2650
Wire Wire Line
	8200 4100 8250 4100
Connection ~ 8250 4100
Wire Wire Line
	8250 4100 8250 5100
Wire Wire Line
	8200 3150 8250 3150
Connection ~ 8250 3150
Wire Wire Line
	8250 3150 8250 4100
Wire Wire Line
	9100 1750 9100 2650
Connection ~ 9100 1750
Wire Wire Line
	9100 2650 9100 3150
Wire Wire Line
	9100 5100 9050 5100
Connection ~ 9100 2650
Wire Wire Line
	9050 4100 9100 4100
Connection ~ 9100 4100
Wire Wire Line
	9100 4100 9100 5100
Wire Wire Line
	9050 3150 9100 3150
Connection ~ 9100 3150
Wire Wire Line
	9100 3150 9100 4100
Wire Wire Line
	9950 1750 9950 2650
Connection ~ 9950 1750
Wire Wire Line
	9950 2650 9950 3150
Wire Wire Line
	9950 5100 9900 5100
Connection ~ 9950 2650
Wire Wire Line
	9900 4100 9950 4100
Connection ~ 9950 4100
Wire Wire Line
	9950 4100 9950 5100
Wire Wire Line
	9900 3150 9950 3150
Connection ~ 9950 3150
Wire Wire Line
	9950 3150 9950 4100
Wire Wire Line
	10800 1750 10800 2650
Connection ~ 10800 1750
Wire Wire Line
	10800 2650 10800 3150
Wire Wire Line
	10800 5100 10750 5100
Connection ~ 10800 2650
Wire Wire Line
	10750 4100 10800 4100
Connection ~ 10800 4100
Wire Wire Line
	10800 4100 10800 5100
Wire Wire Line
	10750 3150 10800 3150
Connection ~ 10800 3150
Wire Wire Line
	10800 3150 10800 4100
Wire Wire Line
	11650 1750 11650 2650
Connection ~ 11650 1750
Wire Wire Line
	11650 2650 11650 3150
Wire Wire Line
	8250 5100 8200 5100
Connection ~ 11650 2650
Wire Wire Line
	11600 4100 11650 4100
Wire Wire Line
	11600 3150 11650 3150
Connection ~ 11650 3150
Wire Wire Line
	11650 3150 11650 4100
Wire Wire Line
	12500 1750 12500 2650
Connection ~ 12500 1750
Wire Wire Line
	12500 2650 12500 3150
Connection ~ 12500 2650
Wire Wire Line
	12450 3150 12500 3150
Connection ~ 12500 3150
Wire Wire Line
	12450 4100 12500 4100
Wire Wire Line
	12500 3150 12500 4100
Connection ~ 13350 2650
Wire Wire Line
	13350 1750 13350 2650
Connection ~ 13350 1750
Wire Wire Line
	13300 3150 13350 3150
Wire Wire Line
	13350 2650 13350 3150
Connection ~ 13350 3150
Wire Wire Line
	13350 3150 13350 4100
Wire Wire Line
	13300 4100 13350 4100
Connection ~ 14200 2650
Wire Wire Line
	14200 1750 14200 2650
Connection ~ 14200 1750
Wire Wire Line
	14150 3150 14200 3150
Connection ~ 14200 3150
Wire Wire Line
	14200 3150 14200 2650
Wire Wire Line
	14150 4100 14200 4100
Wire Wire Line
	14200 4100 14200 3150
Connection ~ 15050 2650
Wire Wire Line
	15050 1300 15050 1750
Connection ~ 15050 1750
Wire Wire Line
	15050 1750 15050 2650
Wire Wire Line
	15000 3150 15050 3150
Wire Wire Line
	15050 2650 15050 3150
Wire Wire Line
	15900 1750 15900 2650
Connection ~ 15900 1750
Text HLabel 6250 8200 2    50   Input ~ 0
row0
Text HLabel 6250 8050 2    50   Input ~ 0
row1
Text HLabel 2900 7950 0    50   Input ~ 0
row2
Text HLabel 3000 8700 0    50   Input ~ 0
row3
Text HLabel 3000 8600 0    50   Input ~ 0
row4
Wire Wire Line
	5850 9050 6150 9050
$Comp
L KeyBoard_Components:ATMEGA32U4 U1
U 1 1 5D6B8163
P 4350 9000
F 0 "U1" H 4400 9550 60  0000 C CNN
F 1 "ATMEGA32U4" H 4400 9400 60  0000 C CNN
F 2 "Housing_qfp:LQFP-44_10x10mm_Pitch0.8mm" H 4350 9000 60  0001 C CNN
F 3 "" H 4350 9000 60  0000 C CNN
	1    4350 9000
	1    0    0    -1  
$EndComp
$Comp
L Device:Crystal Y1
U 1 1 5F6CFE1F
P 1300 9750
F 0 "Y1" H 1300 10018 50  0000 C CNN
F 1 "Crystal" H 1300 9927 50  0000 C CNN
F 2 "Crystal:Crystal_HC49-U_Vertical" H 1300 9750 50  0001 C CNN
F 3 "~" H 1300 9750 50  0001 C CNN
	1    1300 9750
	1    0    0    -1  
$EndComp
Wire Wire Line
	1450 9750 1700 9750
Wire Wire Line
	900  9750 1150 9750
$Comp
L Switch:SW_Push_LED K-bks1
U 1 1 5D7AC9BB
P 15550 1850
F 0 "K-bks1" H 15550 2083 60  0000 C CNN
F 1 "KEYSW" H 15550 1750 60  0001 C CNN
F 2 "Switches:Mx_Alps_200" H 15550 1850 60  0001 C CNN
F 3 "" H 15550 1850 60  0000 C CNN
	1    15550 1850
	1    0    0    -1  
$EndComp
Wire Wire Line
	6650 5950 7500 5950
Wire Wire Line
	9200 5950 8350 5950
Connection ~ 8350 5950
Wire Wire Line
	9200 4950 8350 4950
Wire Wire Line
	7500 5550 7500 5650
$Comp
L Device:D D45
U 1 1 5DDB2655
P 7500 5800
F 0 "D45" V 7546 5721 50  0000 R CNN
F 1 "D" V 7455 5721 50  0000 R CNN
F 2 "Keyboard1:D_SOD123_axial" H 7500 5800 50  0001 C CNN
F 3 "~" H 7500 5800 50  0001 C CNN
	1    7500 5800
	0    -1   -1   0   
$EndComp
Connection ~ 7500 5950
Wire Wire Line
	7500 5950 8350 5950
Wire Wire Line
	5450 8250 5950 8250
Wire Wire Line
	5950 8250 5950 8050
Wire Wire Line
	5950 8050 6250 8050
Wire Wire Line
	6250 8200 6000 8200
Wire Wire Line
	6000 8200 6000 8350
Wire Wire Line
	6000 8350 5450 8350
Wire Wire Line
	2900 7950 3300 7950
Wire Wire Line
	3000 8700 3050 8700
Wire Wire Line
	3050 8700 3050 9050
Wire Wire Line
	3050 9050 3300 9050
Wire Wire Line
	3000 8600 3100 8600
Wire Wire Line
	3100 8600 3100 8950
Wire Wire Line
	3100 8950 3300 8950
Wire Wire Line
	3000 8500 3150 8500
Wire Wire Line
	3150 8500 3150 8850
Wire Wire Line
	3150 8850 3300 8850
Wire Wire Line
	2900 9750 3300 9750
Wire Wire Line
	6950 8450 5450 8450
Wire Wire Line
	5450 8550 6700 8550
Wire Wire Line
	6700 8550 6700 8600
Wire Wire Line
	6700 8600 6950 8600
Wire Wire Line
	6950 8750 6550 8750
Wire Wire Line
	6550 8750 6550 8650
Wire Wire Line
	6550 8650 5450 8650
Wire Wire Line
	5450 8750 6450 8750
Wire Wire Line
	6450 8750 6450 8900
Wire Wire Line
	6450 8900 6950 8900
Wire Wire Line
	6950 9050 6800 9050
Wire Wire Line
	6800 9050 6800 9150
Wire Wire Line
	6800 9150 5450 9150
Wire Wire Line
	5450 9250 6750 9250
Wire Wire Line
	6750 9250 6750 9200
Wire Wire Line
	6750 9200 6950 9200
Wire Wire Line
	5450 9350 6950 9350
Wire Wire Line
	5450 9450 6800 9450
Wire Wire Line
	6800 9450 6800 9500
Wire Wire Line
	6800 9500 6950 9500
Wire Wire Line
	6950 9650 6500 9650
Wire Wire Line
	6500 9650 6500 9550
Wire Wire Line
	6500 9550 5450 9550
Wire Wire Line
	5450 9650 6450 9650
Wire Wire Line
	6450 9650 6450 9800
Wire Wire Line
	6450 9800 6950 9800
Wire Wire Line
	5450 9750 6400 9750
Wire Wire Line
	6400 9750 6400 9950
Wire Wire Line
	6400 9950 6950 9950
Wire Wire Line
	6950 10100 6300 10100
Wire Wire Line
	6300 10100 6300 9850
Wire Wire Line
	6300 9850 5450 9850
Wire Wire Line
	4700 1750 4850 1750
Wire Wire Line
	4150 1750 4300 1750
Wire Wire Line
	5000 1750 5150 1750
Wire Wire Line
	5550 1750 5700 1750
Wire Wire Line
	5850 1750 6000 1750
Wire Wire Line
	6400 1750 6550 1750
Wire Wire Line
	6700 1750 6850 1750
Wire Wire Line
	7250 1750 7400 1750
Wire Wire Line
	7550 1750 7700 1750
Wire Wire Line
	8100 1750 8250 1750
Wire Wire Line
	8400 1750 8550 1750
Wire Wire Line
	8950 1750 9100 1750
Wire Wire Line
	9250 1750 9400 1750
Wire Wire Line
	9800 1750 9950 1750
Wire Wire Line
	10100 1750 10250 1750
Wire Wire Line
	10650 1750 10800 1750
Wire Wire Line
	10950 1750 11100 1750
Wire Wire Line
	11500 1750 11650 1750
Wire Wire Line
	11800 1750 11950 1750
Wire Wire Line
	12350 1750 12500 1750
Wire Wire Line
	12650 1750 12800 1750
Wire Wire Line
	13200 1750 13350 1750
Wire Wire Line
	13500 1750 13650 1750
Wire Wire Line
	14050 1750 14200 1750
Wire Wire Line
	14350 1750 14500 1750
Wire Wire Line
	14900 1750 15050 1750
Wire Wire Line
	15200 1750 15350 1750
Wire Wire Line
	15750 1750 15900 1750
Wire Wire Line
	15750 2650 15900 2650
Wire Wire Line
	15200 2650 15350 2650
Wire Wire Line
	14900 2650 15050 2650
Wire Wire Line
	14350 2650 14500 2650
Wire Wire Line
	14050 2650 14200 2650
Wire Wire Line
	13500 2650 13650 2650
Wire Wire Line
	13200 2650 13350 2650
Wire Wire Line
	12650 2650 12800 2650
Wire Wire Line
	14850 3600 15000 3600
Wire Wire Line
	14300 3600 14450 3600
Wire Wire Line
	14000 3600 14150 3600
Wire Wire Line
	13450 3600 13600 3600
Wire Wire Line
	13150 3600 13300 3600
Wire Wire Line
	12600 3600 12750 3600
Wire Wire Line
	12300 3600 12450 3600
Wire Wire Line
	12350 2650 12500 2650
Wire Wire Line
	11800 2650 11950 2650
Wire Wire Line
	11750 3600 11900 3600
Wire Wire Line
	11450 3600 11600 3600
Wire Wire Line
	10900 3600 11050 3600
Wire Wire Line
	10600 3600 10750 3600
Wire Wire Line
	10050 3600 10200 3600
Wire Wire Line
	9750 3600 9900 3600
Wire Wire Line
	9200 3600 9350 3600
Wire Wire Line
	11500 2650 11650 2650
Wire Wire Line
	10950 2650 11100 2650
Wire Wire Line
	10650 2650 10800 2650
Wire Wire Line
	10100 2650 10250 2650
Wire Wire Line
	9800 2650 9950 2650
Wire Wire Line
	9250 2650 9400 2650
Wire Wire Line
	9000 2650 9100 2650
Wire Wire Line
	8400 2650 8600 2650
Wire Wire Line
	8900 3600 9050 3600
Wire Wire Line
	8350 3600 8500 3600
Wire Wire Line
	8100 2650 8250 2650
Wire Wire Line
	7550 2650 7700 2650
Wire Wire Line
	7250 2650 7400 2650
Wire Wire Line
	6700 2650 6850 2650
Wire Wire Line
	6400 2650 6550 2650
Wire Wire Line
	5850 2650 6000 2650
Wire Wire Line
	5550 2650 5700 2650
Wire Wire Line
	5000 2650 5150 2650
Wire Wire Line
	4700 2650 4850 2650
Wire Wire Line
	4150 2650 4300 2650
Wire Wire Line
	4100 3600 4250 3600
Wire Wire Line
	4650 3600 4850 3600
Wire Wire Line
	4100 4550 4250 4550
Wire Wire Line
	4650 4550 4850 4550
Wire Wire Line
	4100 5550 4250 5550
Wire Wire Line
	4650 5550 4800 5550
Wire Wire Line
	4950 5550 5100 5550
Wire Wire Line
	5500 5550 5650 5550
Wire Wire Line
	4950 3600 5100 3600
Wire Wire Line
	5500 3600 5650 3600
Wire Wire Line
	4950 4550 5100 4550
Wire Wire Line
	5500 4550 5650 4550
Wire Wire Line
	5800 3600 5950 3600
Wire Wire Line
	6350 3600 6500 3600
Wire Wire Line
	5800 4550 5950 4550
Wire Wire Line
	6350 4550 6500 4550
Wire Wire Line
	5800 5550 5950 5550
Wire Wire Line
	6350 5550 6500 5550
Wire Wire Line
	6650 3600 6800 3600
Wire Wire Line
	7200 3600 7350 3600
Wire Wire Line
	6650 4550 6800 4550
Wire Wire Line
	7200 4550 7350 4550
Wire Wire Line
	6650 5550 6800 5550
Wire Wire Line
	7200 5550 7350 5550
Wire Wire Line
	7500 3600 7650 3600
Wire Wire Line
	8050 3600 8200 3600
Wire Wire Line
	7500 4550 7650 4550
Wire Wire Line
	8050 4550 8200 4550
Wire Wire Line
	7500 5550 7650 5550
Wire Wire Line
	8050 5550 8200 5550
Wire Wire Line
	8350 4550 8500 4550
Wire Wire Line
	8900 4550 9050 4550
Wire Wire Line
	9200 4550 9350 4550
Wire Wire Line
	9750 4550 9900 4550
Wire Wire Line
	10050 4550 10200 4550
Wire Wire Line
	10600 4550 10750 4550
Wire Wire Line
	10900 4550 11050 4550
Wire Wire Line
	11450 4550 11600 4550
Wire Wire Line
	11750 4550 11900 4550
Wire Wire Line
	12300 4550 12450 4550
Wire Wire Line
	12600 4550 12750 4550
Wire Wire Line
	13150 4550 13300 4550
Wire Wire Line
	13450 4550 13600 4550
Wire Wire Line
	14000 4550 14150 4550
Wire Wire Line
	10600 5550 10750 5550
Wire Wire Line
	10050 5550 10200 5550
Wire Wire Line
	9750 5550 9900 5550
Wire Wire Line
	9200 5550 9350 5550
Wire Wire Line
	8900 5550 9050 5550
Wire Wire Line
	8350 5550 8500 5550
$Comp
L KeyBoard_Components:ATMEGA32U4 U?
U 1 1 5DCB9E0D
P 10250 8300
F 0 "U?" H 10275 9637 60  0000 C CNN
F 1 "ATMEGA32U4" H 10275 9531 60  0000 C CNN
F 2 "" H 10250 8300 60  0000 C CNN
F 3 "" H 10250 8300 60  0000 C CNN
	1    10250 8300
	1    0    0    -1  
$EndComp
Text HLabel 3800 1850 0    50   Input ~ 0
row0_leds
Text HLabel 3800 2800 0    50   Input ~ 0
row1_leds
Text HLabel 3700 3800 0    50   Input ~ 0
row2_leds
Text HLabel 3750 4700 0    50   Input ~ 0
row3_leds
Text HLabel 3800 5750 0    50   Input ~ 0
row4_leds
Text HLabel 5100 1300 1    50   Input ~ 0
col0_leds
Text HLabel 5900 1300 1    50   Input ~ 0
col1_leds
Text HLabel 6700 1300 1    50   Input ~ 0
col2_leds
Text HLabel 7600 1300 1    50   Input ~ 0
col3_leds
Text HLabel 8400 1300 1    50   Input ~ 0
col4_leds
Text HLabel 9250 1300 1    50   Input ~ 0
col5_leds
Text HLabel 10100 1300 1    50   Input ~ 0
col6_leds
Text HLabel 10950 1300 1    50   Input ~ 0
col7_leds
Text HLabel 11800 1300 1    50   Input ~ 0
col8_leds
Text HLabel 12700 1300 1    50   Input ~ 0
col9_leds
Text HLabel 13550 1300 1    50   Input ~ 0
col10_leds
Text HLabel 14350 1300 1    50   Input ~ 0
col11_leds
Text HLabel 15150 1350 1    50   Input ~ 0
col12_leds
Text HLabel 16000 1350 1    50   Input ~ 0
col13_leds
Text HLabel 12950 10450 2    50   Input ~ 0
row0_leds
Text HLabel 11950 7850 2    50   Input ~ 0
row1_leds
Text HLabel 11950 7750 2    50   Input ~ 0
row2_leds
Text HLabel 11950 7650 2    50   Input ~ 0
row3_leds
Text HLabel 11950 7550 2    50   Input ~ 0
row4_leds
Text HLabel 11950 7950 2    50   Input ~ 0
row0_leds
Text HLabel 13450 7250 2    50   Input ~ 0
col0_leds
Text HLabel 13450 7350 2    50   Input ~ 0
col1_leds
Text HLabel 13450 7450 2    50   Input ~ 0
col2_leds
Text HLabel 13450 7550 2    50   Input ~ 0
col3_leds
Text HLabel 13450 7650 2    50   Input ~ 0
col4_leds
Text HLabel 13450 7750 2    50   Input ~ 0
col5_leds
Text HLabel 13450 7850 2    50   Input ~ 0
col6_leds
Text HLabel 13450 7950 2    50   Input ~ 0
col7_leds
Text HLabel 13450 8050 2    50   Input ~ 0
col8_leds
Text HLabel 13450 8150 2    50   Input ~ 0
col9_leds
Text HLabel 13450 8250 2    50   Input ~ 0
col10_leds
Text HLabel 13450 8350 2    50   Input ~ 0
col11_leds
Text HLabel 13450 8450 2    50   Input ~ 0
col12_leds
Text HLabel 13450 8550 2    50   Input ~ 0
col13_leds
$EndSCHEMATC
